idx,conv1_out,measurements
0,1,0.000418901443481
1,1,0.000419139862061
2,1,0.000420808792114
3,1,0.000417947769165
4,1,0.000449895858765
5,1,0.00042200088501
6,1,0.000416994094849
7,1,0.000416994094849
8,1,0.000421047210693
9,1,0.000419855117798
10,1,0.000416040420532
11,1,0.000416994094849
12,1,0.000415086746216
13,1,0.000416994094849
14,1,0.000418186187744
15,1,0.000417947769165
16,1,0.000416040420532
17,1,0.000419139862061
18,1,0.000418901443481
19,1,0.000418186187744
20,1,0.000421047210693
21,1,0.000418186187744
22,1,0.000417947769165
23,1,0.000417947769165
24,1,0.000448942184448
25,1,0.000417947769165
26,1,0.000419139862061
27,1,0.000419139862061
28,1,0.000419855117798
29,1,0.000418186187744
30,1,0.000417947769165
31,1,0.000420093536377
32,1,0.000420093536377
33,1,0.000418901443481
34,1,0.000418186187744
35,1,0.000416994094849
36,1,0.000419855117798
37,1,0.000418186187744
38,1,0.000417947769165
39,1,0.000419855117798
40,1,0.000422954559326
41,1,0.000419855117798
42,1,0.000419855117798
43,1,0.000420808792114
44,1,0.000427961349487
45,1,0.00042200088501
46,1,0.000422954559326
47,1,0.000419855117798
48,1,0.000420093536377
49,1,0.000423192977905
50,1,0.000420808792114
51,1,0.000420808792114
52,1,0.000421047210693
53,1,0.000421047210693
54,1,0.000418186187744
55,1,0.000421047210693
56,1,0.000417947769165
57,1,0.000421047210693
58,1,0.00042200088501
59,1,0.000421047210693
60,1,0.000424146652222
61,1,0.000419855117798
62,1,0.000420093536377
63,1,0.000441074371338
64,1,0.000425100326538
65,1,0.000421047210693
66,1,0.000418901443481
67,1,0.000421047210693
68,1,0.00042200088501
69,1,0.00042200088501
70,1,0.000420093536377
71,1,0.000419855117798
72,1,0.000423192977905
73,1,0.000417947769165
74,1,0.000420093536377
75,1,0.000420093536377
76,1,0.000420093536377
77,1,0.000419855117798
78,1,0.000421047210693
79,1,0.000419139862061
80,1,0.000418901443481
81,1,0.000420093536377
82,1,0.00042200088501
83,1,0.000442028045654
84,1,0.000424861907959
85,1,0.000420808792114
86,1,0.000420093536377
87,1,0.000421047210693
88,1,0.000421047210693
89,1,0.000419139862061
90,1,0.000418901443481
91,1,0.000421047210693
92,1,0.000417947769165
93,1,0.000418186187744
94,1,0.000418901443481
95,1,0.000420093536377
96,1,0.000419855117798
97,1,0.000419855117798
98,1,0.00042200088501
99,1,0.000421047210693
100,1,0.00042200088501
101,1,0.000418901443481
102,1,0.000417947769165
103,1,0.000442028045654
104,1,0.000420808792114
105,1,0.000419855117798
106,1,0.000418186187744
107,1,0.000420093536377
108,1,0.000421047210693
109,1,0.000417947769165
110,1,0.000421047210693
111,1,0.000421047210693
112,1,0.000420093536377
113,1,0.000421047210693
114,1,0.000417947769165
115,1,0.000419139862061
116,1,0.000420808792114
117,1,0.000419855117798
118,1,0.000419139862061
119,1,0.000417947769165
120,1,0.000419139862061
121,1,0.000421047210693
122,1,0.000418901443481
123,1,0.000441074371338
124,1,0.000422954559326
125,1,0.000421047210693
126,1,0.000419855117798
127,1,0.000419855117798
128,1,0.000419139862061
129,1,0.000421047210693
130,1,0.000419855117798
131,1,0.00042200088501
132,1,0.000419855117798
133,1,0.000420093536377
134,1,0.000419139862061
135,1,0.00042200088501
136,1,0.000419855117798
137,1,0.000419855117798
138,1,0.000417947769165
139,1,0.000417947769165
140,1,0.000417947769165
141,1,0.000419139862061
142,1,0.000417947769165
143,1,0.000427007675171
144,1,0.00042200088501
145,1,0.000420093536377
146,1,0.000419139862061
147,1,0.000421047210693
148,1,0.000418901443481
149,1,0.00042200088501
150,1,0.000420093536377
151,1,0.00042200088501
152,1,0.000420093536377
153,1,0.000420093536377
154,1,0.000422954559326
155,1,0.000419855117798
156,1,0.000419855117798
157,1,0.000419855117798
158,1,0.00042200088501
159,1,0.00042200088501
160,1,0.000420093536377
161,1,0.000420093536377
162,1,0.000530958175659
163,1,0.000461101531982
164,1,0.000427007675171
165,1,0.00042200088501
166,1,0.000422954559326
167,1,0.000419855117798
168,1,0.000420808792114
169,1,0.000418901443481
170,1,0.000421047210693
171,1,0.00042200088501
172,1,0.000421047210693
173,1,0.000421047210693
174,1,0.000420808792114
175,1,0.000417947769165
176,1,0.000421047210693
177,1,0.000418186187744
178,1,0.000472068786621
179,1,0.000432014465332
180,1,0.00042200088501
181,1,0.000454902648926
182,1,0.000425100326538
183,1,0.000421047210693
184,1,0.00042200088501
185,1,0.000421047210693
186,1,0.000418901443481
187,1,0.000421047210693
188,1,0.000417947769165
189,1,0.000421047210693
190,1,0.00042200088501
191,1,0.000418901443481
192,1,0.000422954559326
193,1,0.000421047210693
194,1,0.000423192977905
195,1,0.000424861907959
196,1,0.000421047210693
197,1,0.00042200088501
198,1,0.00042200088501
199,1,0.000421047210693
0,2,0.000468969345093
1,2,0.000468015670776
2,2,0.000468015670776
3,2,0.000468969345093
4,2,0.000465869903564
5,2,0.000470161437988
6,2,0.000471830368042
7,2,0.000469923019409
8,2,0.000469923019409
9,2,0.00049901008606
10,2,0.000470161437988
11,2,0.000469923019409
12,2,0.000468015670776
13,2,0.000468969345093
14,2,0.000466823577881
15,2,0.000469923019409
16,2,0.000470161437988
17,2,0.000468969345093
18,2,0.000469923019409
19,2,0.000469207763672
20,2,0.000468969345093
21,2,0.000469923019409
22,2,0.000468969345093
23,2,0.000468969345093
24,2,0.000468015670776
25,2,0.000468015670776
26,2,0.000468969345093
27,2,0.00049901008606
28,2,0.000473022460938
29,2,0.000467777252197
30,2,0.000468969345093
31,2,0.000469923019409
32,2,0.000470161437988
33,2,0.000468969345093
34,2,0.00046706199646
35,2,0.000470161437988
36,2,0.000468015670776
37,2,0.000469923019409
38,2,0.000471115112305
39,2,0.000472068786621
40,2,0.000470161437988
41,2,0.00046706199646
42,2,0.000468969345093
43,2,0.00046706199646
44,2,0.000468015670776
45,2,0.000491142272949
46,2,0.000469923019409
47,2,0.000465869903564
48,2,0.000467777252197
49,2,0.000468969345093
50,2,0.00046706199646
51,2,0.000469923019409
52,2,0.00046706199646
53,2,0.000470876693726
54,2,0.00046706199646
55,2,0.000468015670776
56,2,0.00046706199646
57,2,0.000468015670776
58,2,0.00046706199646
59,2,0.000470876693726
60,2,0.000464916229248
61,2,0.000470161437988
62,2,0.000466823577881
63,2,0.000494956970215
64,2,0.000468015670776
65,2,0.000470876693726
66,2,0.000468015670776
67,2,0.000470161437988
68,2,0.000463962554932
69,2,0.000468969345093
70,2,0.000468015670776
71,2,0.000469923019409
72,2,0.000468969345093
73,2,0.000468015670776
74,2,0.000468015670776
75,2,0.000471830368042
76,2,0.000465869903564
77,2,0.000469923019409
78,2,0.00046706199646
79,2,0.000468015670776
80,2,0.000468015670776
81,2,0.000494956970215
82,2,0.000470161437988
83,2,0.000468015670776
84,2,0.000469923019409
85,2,0.000468969345093
86,2,0.00046706199646
87,2,0.000467777252197
88,2,0.00046706199646
89,2,0.00046706199646
90,2,0.000464916229248
91,2,0.000469923019409
92,2,0.000468015670776
93,2,0.000466108322144
94,2,0.000468969345093
95,2,0.000468015670776
96,2,0.000468015670776
97,2,0.000468969345093
98,2,0.00046706199646
99,2,0.000508069992065
100,2,0.000479936599731
101,2,0.000469923019409
102,2,0.000468015670776
103,2,0.000470876693726
104,2,0.000468015670776
105,2,0.000468015670776
106,2,0.000469923019409
107,2,0.000472068786621
108,2,0.000466108322144
109,2,0.000470876693726
110,2,0.000468015670776
111,2,0.000468969345093
112,2,0.000468015670776
113,2,0.000470161437988
114,2,0.000468969345093
115,2,0.000468969345093
116,2,0.000465869903564
117,2,0.000494003295898
118,2,0.000475883483887
119,2,0.000468969345093
120,2,0.00046706199646
121,2,0.000468015670776
122,2,0.000468969345093
123,2,0.000469923019409
124,2,0.000470161437988
125,2,0.000466823577881
126,2,0.000469923019409
127,2,0.000470161437988
128,2,0.000471115112305
129,2,0.000469923019409
130,2,0.000467777252197
131,2,0.00046706199646
132,2,0.000468015670776
133,2,0.000468015670776
134,2,0.000468015670776
135,2,0.000492095947266
136,2,0.000472068786621
137,2,0.000468015670776
138,2,0.000468015670776
139,2,0.000468015670776
140,2,0.00046706199646
141,2,0.000469923019409
142,2,0.000468015670776
143,2,0.000471115112305
144,2,0.000468969345093
145,2,0.000468015670776
146,2,0.000468015670776
147,2,0.000468015670776
148,2,0.000464916229248
149,2,0.000469923019409
150,2,0.000465869903564
151,2,0.000469923019409
152,2,0.000468015670776
153,2,0.000497102737427
154,2,0.000474214553833
155,2,0.000468969345093
156,2,0.000468969345093
157,2,0.000470876693726
158,2,0.000470161437988
159,2,0.000468015670776
160,2,0.000524044036865
161,2,0.000473976135254
162,2,0.000470161437988
163,2,0.000466823577881
164,2,0.000469923019409
165,2,0.000473022460938
166,2,0.000469923019409
167,2,0.000468015670776
168,2,0.000468015670776
169,2,0.000468969345093
170,2,0.00049901008606
171,2,0.000475883483887
172,2,0.000473022460938
173,2,0.000469923019409
174,2,0.000469923019409
175,2,0.00046706199646
176,2,0.000468015670776
177,2,0.000470876693726
178,2,0.000470876693726
179,2,0.000470161437988
180,2,0.000470161437988
181,2,0.000470876693726
182,2,0.000494956970215
183,2,0.000472068786621
184,2,0.000469923019409
185,2,0.000469923019409
186,2,0.000468969345093
187,2,0.000471115112305
188,2,0.000494956970215
189,2,0.000473976135254
190,2,0.000470876693726
191,2,0.000468969345093
192,2,0.000467777252197
193,2,0.00046706199646
194,2,0.000468015670776
195,2,0.000468969345093
196,2,0.000465869903564
197,2,0.000468015670776
198,2,0.000469923019409
199,2,0.000470876693726
0,3,0.000545978546143
1,3,0.000545978546143
2,3,0.000545024871826
3,3,0.000545978546143
4,3,0.00054407119751
5,3,0.000545978546143
6,3,0.000552892684937
7,3,0.000545978546143
8,3,0.000545978546143
9,3,0.000544786453247
10,3,0.000546932220459
11,3,0.000545024871826
12,3,0.000545024871826
13,3,0.00054407119751
14,3,0.000545024871826
15,3,0.00054407119751
16,3,0.000546932220459
17,3,0.00054407119751
18,3,0.000543117523193
19,3,0.000542163848877
20,3,0.000545024871826
21,3,0.000566005706787
22,3,0.000550031661987
23,3,0.000545024871826
24,3,0.000545024871826
25,3,0.000545024871826
26,3,0.000545024871826
27,3,0.00054407119751
28,3,0.000547170639038
29,3,0.000545978546143
30,3,0.000547885894775
31,3,0.000544786453247
32,3,0.000542879104614
33,3,0.000545024871826
34,3,0.000545978546143
35,3,0.000547170639038
36,3,0.00054407119751
37,3,0.00056791305542
38,3,0.000547170639038
39,3,0.000547885894775
40,3,0.00054407119751
41,3,0.000545024871826
42,3,0.000545024871826
43,3,0.00054407119751
44,3,0.000543832778931
45,3,0.000545978546143
46,3,0.000546932220459
47,3,0.000545978546143
48,3,0.000546932220459
49,3,0.000549077987671
50,3,0.000545978546143
51,3,0.000545024871826
52,3,0.000543832778931
53,3,0.000572919845581
54,3,0.000550985336304
55,3,0.000545978546143
56,3,0.000545024871826
57,3,0.000545978546143
58,3,0.000543117523193
59,3,0.000547885894775
60,3,0.000545024871826
61,3,0.000545024871826
62,3,0.00054407119751
63,3,0.000545978546143
64,3,0.000545024871826
65,3,0.000546932220459
66,3,0.000550031661987
67,3,0.000545978546143
68,3,0.000545978546143
69,3,0.000572919845581
70,3,0.000550031661987
71,3,0.00054407119751
72,3,0.000544786453247
73,3,0.000546932220459
74,3,0.000545024871826
75,3,0.000545024871826
76,3,0.000543117523193
77,3,0.000549077987671
78,3,0.000543117523193
79,3,0.000545024871826
80,3,0.000545024871826
81,3,0.000547170639038
82,3,0.000545024871826
83,3,0.000546932220459
84,3,0.00054407119751
85,3,0.000574111938477
86,3,0.000547885894775
87,3,0.000550031661987
88,3,0.000546932220459
89,3,0.000547885894775
90,3,0.000546932220459
91,3,0.000545978546143
92,3,0.000545978546143
93,3,0.000543117523193
94,3,0.000546932220459
95,3,0.000547885894775
96,3,0.000543832778931
97,3,0.000545978546143
98,3,0.000549077987671
99,3,0.000546932220459
100,3,0.000566959381104
101,3,0.000554084777832
102,3,0.000545978546143
103,3,0.000545978546143
104,3,0.000546932220459
105,3,0.000546932220459
106,3,0.000543117523193
107,3,0.000545978546143
108,3,0.000543117523193
109,3,0.000545024871826
110,3,0.000545024871826
111,3,0.00054407119751
112,3,0.000545024871826
113,3,0.000545978546143
114,3,0.00054407119751
115,3,0.000545024871826
116,3,0.000565052032471
117,3,0.000552892684937
118,3,0.000545978546143
119,3,0.000542879104614
120,3,0.000540971755981
121,3,0.00054407119751
122,3,0.000545978546143
123,3,0.000540971755981
124,3,0.00054407119751
125,3,0.000545024871826
126,3,0.000545978546143
127,3,0.000542879104614
128,3,0.000544786453247
129,3,0.000547170639038
130,3,0.000547170639038
131,3,0.000546932220459
132,3,0.000568866729736
133,3,0.000549077987671
134,3,0.000545024871826
135,3,0.000543117523193
136,3,0.000545978546143
137,3,0.000543117523193
138,3,0.000603914260864
139,3,0.000553846359253
140,3,0.000546932220459
141,3,0.000547170639038
142,3,0.000546932220459
143,3,0.00054407119751
144,3,0.000545024871826
145,3,0.000543832778931
146,3,0.000542879104614
147,3,0.000575065612793
148,3,0.000550031661987
149,3,0.00054407119751
150,3,0.000545978546143
151,3,0.00054407119751
152,3,0.00054407119751
153,3,0.000549077987671
154,3,0.000550985336304
155,3,0.000547885894775
156,3,0.000545978546143
157,3,0.000544786453247
158,3,0.000545978546143
159,3,0.000546932220459
160,3,0.000545978546143
161,3,0.000545024871826
162,3,0.000543832778931
163,3,0.000574111938477
164,3,0.00055193901062
165,3,0.00054407119751
166,3,0.000545024871826
167,3,0.000548124313354
168,3,0.000545024871826
169,3,0.000545978546143
170,3,0.000545024871826
171,3,0.000545024871826
172,3,0.000543117523193
173,3,0.000545024871826
174,3,0.000543117523193
175,3,0.000547885894775
176,3,0.000545024871826
177,3,0.000548124313354
178,3,0.000543832778931
179,3,0.000571012496948
180,3,0.000548124313354
181,3,0.000547885894775
182,3,0.000566005706787
183,3,0.000547885894775
184,3,0.000543117523193
185,3,0.000543117523193
186,3,0.000543117523193
187,3,0.000549077987671
188,3,0.000541925430298
189,3,0.000545978546143
190,3,0.000545024871826
191,3,0.000547885894775
192,3,0.000543832778931
193,3,0.000550031661987
194,3,0.000545024871826
195,3,0.000586032867432
196,3,0.000547885894775
197,3,0.000545978546143
198,3,0.000542879104614
199,3,0.000545024871826
0,4,0.000585079193115
1,4,0.000584125518799
2,4,0.000585079193115
3,4,0.000586032867432
4,4,0.000586032867432
5,4,0.000585079193115
6,4,0.000586032867432
7,4,0.000591039657593
8,4,0.000582933425903
9,4,0.000584840774536
10,4,0.00058388710022
11,4,0.00058388710022
12,4,0.000583171844482
13,4,0.000585079193115
14,4,0.000584840774536
15,4,0.00058388710022
16,4,0.000582933425903
17,4,0.000582933425903
18,4,0.000585079193115
19,4,0.00058388710022
20,4,0.00058388710022
21,4,0.000585079193115
22,4,0.000591039657593
23,4,0.000584840774536
24,4,0.00058388710022
25,4,0.000584840774536
26,4,0.000586032867432
27,4,0.000586986541748
28,4,0.000585794448853
29,4,0.00058388710022
30,4,0.000583171844482
31,4,0.000585079193115
32,4,0.000585079193115
33,4,0.00058388710022
34,4,0.000584125518799
35,4,0.000581979751587
36,4,0.00060510635376
37,4,0.000589847564697
38,4,0.000589847564697
39,4,0.000585079193115
40,4,0.000582933425903
41,4,0.000581026077271
42,4,0.000583171844482
43,4,0.000581026077271
44,4,0.000583171844482
45,4,0.000581979751587
46,4,0.000581979751587
47,4,0.000581026077271
48,4,0.000584125518799
49,4,0.000581979751587
50,4,0.000582933425903
51,4,0.00059986114502
52,4,0.000586986541748
53,4,0.000582933425903
54,4,0.000584125518799
55,4,0.000583171844482
56,4,0.000584840774536
57,4,0.00058388710022
58,4,0.000584840774536
59,4,0.000584840774536
60,4,0.000584125518799
61,4,0.000586032867432
62,4,0.000584840774536
63,4,0.000586032867432
64,4,0.000582218170166
65,4,0.000585079193115
66,4,0.000604152679443
67,4,0.000591039657593
68,4,0.00058388710022
69,4,0.000584125518799
70,4,0.000582933425903
71,4,0.000581979751587
72,4,0.000585079193115
73,4,0.000581979751587
74,4,0.000583171844482
75,4,0.00058388710022
76,4,0.000582933425903
77,4,0.000581026077271
78,4,0.000581979751587
79,4,0.000580072402954
80,4,0.000581979751587
81,4,0.000600814819336
82,4,0.000587940216064
83,4,0.000581026077271
84,4,0.000582933425903
85,4,0.000584840774536
86,4,0.000579833984375
87,4,0.00058388710022
88,4,0.000584840774536
89,4,0.00058388710022
90,4,0.000584125518799
91,4,0.000584125518799
92,4,0.000582933425903
93,4,0.000582933425903
94,4,0.000585079193115
95,4,0.000582933425903
96,4,0.000606775283813
97,4,0.00058913230896
98,4,0.00058388710022
99,4,0.000585079193115
100,4,0.000584840774536
101,4,0.00058388710022
102,4,0.000582933425903
103,4,0.000585079193115
104,4,0.000584125518799
105,4,0.000585079193115
106,4,0.000584125518799
107,4,0.000582218170166
108,4,0.000579833984375
109,4,0.000581979751587
110,4,0.000583171844482
111,4,0.000618934631348
112,4,0.000593900680542
113,4,0.000586986541748
114,4,0.000585079193115
115,4,0.000586032867432
116,4,0.000588893890381
117,4,0.000585079193115
118,4,0.000587224960327
119,4,0.000588893890381
120,4,0.000586986541748
121,4,0.000586032867432
122,4,0.000586032867432
123,4,0.000586986541748
124,4,0.00058913230896
125,4,0.00058913230896
126,4,0.00061297416687
127,4,0.000590085983276
128,4,0.000586986541748
129,4,0.000643968582153
130,4,0.000595092773438
131,4,0.000588178634644
132,4,0.000588893890381
133,4,0.000587224960327
134,4,0.000590085983276
135,4,0.000586986541748
136,4,0.000585794448853
137,4,0.000584840774536
138,4,0.000586986541748
139,4,0.000586986541748
140,4,0.000617980957031
141,4,0.000591993331909
142,4,0.00058913230896
143,4,0.000584125518799
144,4,0.000591993331909
145,4,0.000587940216064
146,4,0.000589847564697
147,4,0.000588893890381
148,4,0.000585079193115
149,4,0.000586032867432
150,4,0.000587224960327
151,4,0.000586986541748
152,4,0.000585079193115
153,4,0.000586986541748
154,4,0.00058913230896
155,4,0.000613927841187
156,4,0.000594854354858
157,4,0.000586986541748
158,4,0.000587940216064
159,4,0.000586986541748
160,4,0.000588178634644
161,4,0.000584840774536
162,4,0.000588178634644
163,4,0.000585079193115
164,4,0.000585079193115
165,4,0.000585079193115
166,4,0.000588893890381
167,4,0.000586986541748
168,4,0.000586986541748
169,4,0.00058913230896
170,4,0.000614881515503
171,4,0.000594139099121
172,4,0.000586032867432
173,4,0.000584125518799
174,4,0.000585794448853
175,4,0.000586032867432
176,4,0.000588893890381
177,4,0.000586986541748
178,4,0.000588893890381
179,4,0.000585079193115
180,4,0.000587940216064
181,4,0.000586032867432
182,4,0.000587940216064
183,4,0.000586986541748
184,4,0.000589847564697
185,4,0.00059700012207
186,4,0.000587940216064
187,4,0.000586986541748
188,4,0.000588178634644
189,4,0.000586032867432
190,4,0.000586986541748
191,4,0.000587940216064
192,4,0.000586032867432
193,4,0.000586032867432
194,4,0.000588893890381
195,4,0.000588178634644
196,4,0.000588178634644
197,4,0.000586986541748
198,4,0.000590085983276
199,4,0.000605821609497
0,5,0.000684022903442
1,5,0.000671148300171
2,5,0.00066614151001
3,5,0.000666856765747
4,5,0.000664949417114
5,5,0.000663042068481
6,5,0.000661849975586
7,5,0.000663995742798
8,5,0.000662088394165
9,5,0.000664949417114
10,5,0.000664949417114
11,5,0.000663042068481
12,5,0.000661134719849
13,5,0.000662803649902
14,5,0.000689029693604
15,5,0.000668048858643
16,5,0.000669956207275
17,5,0.000667095184326
18,5,0.000668048858643
19,5,0.000669002532959
20,5,0.000669956207275
21,5,0.000665903091431
22,5,0.000666856765747
23,5,0.000665903091431
24,5,0.000665903091431
25,5,0.000669956207275
26,5,0.000664949417114
27,5,0.000698089599609
28,5,0.000672101974487
29,5,0.000667095184326
30,5,0.000664949417114
31,5,0.00066614151001
32,5,0.000664949417114
33,5,0.000668048858643
34,5,0.000667095184326
35,5,0.000669002532959
36,5,0.000664949417114
37,5,0.000667810440063
38,5,0.000663042068481
39,5,0.000667095184326
40,5,0.000687122344971
41,5,0.000670909881592
42,5,0.000662088394165
43,5,0.000663995742798
44,5,0.000661849975586
45,5,0.000663995742798
46,5,0.000665903091431
47,5,0.000663995742798
48,5,0.000664949417114
49,5,0.000664949417114
50,5,0.000663995742798
51,5,0.000662088394165
52,5,0.000662088394165
53,5,0.000683069229126
54,5,0.000670909881592
55,5,0.000664949417114
56,5,0.00066089630127
57,5,0.000663995742798
58,5,0.000663042068481
59,5,0.000663995742798
60,5,0.00066089630127
61,5,0.000663995742798
62,5,0.00066089630127
63,5,0.000665187835693
64,5,0.000661134719849
65,5,0.00066089630127
66,5,0.000662088394165
67,5,0.000689029693604
68,5,0.000665187835693
69,5,0.000664949417114
70,5,0.000667095184326
71,5,0.000663042068481
72,5,0.000663995742798
73,5,0.000661134719849
74,5,0.000663042068481
75,5,0.000663995742798
76,5,0.000661849975586
77,5,0.000663042068481
78,5,0.000662088394165
79,5,0.000663995742798
80,5,0.000688076019287
81,5,0.000668048858643
82,5,0.000665187835693
83,5,0.000662088394165
84,5,0.000663042068481
85,5,0.000666856765747
86,5,0.000663995742798
87,5,0.000663995742798
88,5,0.000662088394165
89,5,0.000662088394165
90,5,0.000664949417114
91,5,0.000663995742798
92,5,0.000662088394165
93,5,0.000683069229126
94,5,0.000670909881592
95,5,0.000665903091431
96,5,0.00066614151001
97,5,0.000663995742798
98,5,0.000663995742798
99,5,0.000663995742798
100,5,0.00066614151001
101,5,0.000666856765747
102,5,0.000663995742798
103,5,0.000663042068481
104,5,0.000663042068481
105,5,0.000663042068481
106,5,0.000663042068481
107,5,0.00068998336792
108,5,0.000666856765747
109,5,0.000664949417114
110,5,0.000664234161377
111,5,0.000665903091431
112,5,0.00066614151001
113,5,0.000729084014893
114,5,0.000673770904541
115,5,0.000665903091431
116,5,0.000665903091431
117,5,0.000664949417114
118,5,0.000663995742798
119,5,0.000662803649902
120,5,0.000671863555908
121,5,0.00066614151001
122,5,0.000666856765747
123,5,0.000662803649902
124,5,0.000665187835693
125,5,0.000663042068481
126,5,0.000663995742798
127,5,0.000663995742798
128,5,0.000669002532959
129,5,0.000664949417114
130,5,0.000664234161377
131,5,0.000662803649902
132,5,0.000665187835693
133,5,0.000689029693604
134,5,0.000667095184326
135,5,0.000664949417114
136,5,0.000663995742798
137,5,0.000663995742798
138,5,0.000662088394165
139,5,0.000663042068481
140,5,0.000663042068481
141,5,0.000664949417114
142,5,0.000664949417114
143,5,0.000663995742798
144,5,0.000663042068481
145,5,0.000663042068481
146,5,0.000694990158081
147,5,0.000679969787598
148,5,0.000667810440063
149,5,0.000666856765747
150,5,0.000663995742798
151,5,0.000670194625854
152,5,0.000672101974487
153,5,0.000669002532959
154,5,0.000669002532959
155,5,0.000668048858643
156,5,0.000669002532959
157,5,0.00066614151001
158,5,0.000665187835693
159,5,0.000685930252075
160,5,0.000676155090332
161,5,0.000669002532959
162,5,0.000666856765747
163,5,0.000667095184326
164,5,0.00066614151001
165,5,0.000665903091431
166,5,0.00066614151001
167,5,0.000663995742798
168,5,0.000664949417114
169,5,0.000667810440063
170,5,0.000664949417114
171,5,0.000664949417114
172,5,0.000669956207275
173,5,0.000694036483765
174,5,0.000670909881592
175,5,0.000669002532959
176,5,0.000665903091431
177,5,0.000666856765747
178,5,0.000663042068481
179,5,0.000666856765747
180,5,0.000664949417114
181,5,0.000666856765747
182,5,0.000665903091431
183,5,0.000663995742798
184,5,0.000665903091431
185,5,0.000669002532959
186,5,0.000691175460815
187,5,0.000666856765747
188,5,0.000665903091431
189,5,0.000664949417114
190,5,0.000663995742798
191,5,0.000664949417114
192,5,0.000663995742798
193,5,0.000663042068481
194,5,0.000668048858643
195,5,0.000664949417114
196,5,0.000663995742798
197,5,0.000669002532959
198,5,0.000668048858643
199,5,0.000689029693604
0,6,0.000710010528564
1,6,0.000710964202881
2,6,0.000708103179932
3,6,0.000710964202881
4,6,0.000710010528564
5,6,0.000710010528564
6,6,0.000728130340576
7,6,0.000715017318726
8,6,0.000706911087036
9,6,0.000710010528564
10,6,0.00071120262146
11,6,0.000713109970093
12,6,0.000709056854248
13,6,0.000710010528564
14,6,0.000706911087036
15,6,0.000708818435669
16,6,0.000707864761353
17,6,0.000709056854248
18,6,0.000710010528564
19,6,0.000735998153687
20,6,0.000714063644409
21,6,0.000713109970093
22,6,0.000710964202881
23,6,0.000709056854248
24,6,0.000708818435669
25,6,0.000712156295776
26,6,0.000710010528564
27,6,0.000711917877197
28,6,0.000710964202881
29,6,0.000711917877197
30,6,0.000711917877197
31,6,0.000730991363525
32,6,0.000729084014893
33,6,0.000718832015991
34,6,0.000715970993042
35,6,0.000716924667358
36,6,0.000712156295776
37,6,0.00071120262146
38,6,0.000711917877197
39,6,0.000712156295776
40,6,0.000710964202881
41,6,0.000710010528564
42,6,0.000713109970093
43,6,0.000710964202881
44,6,0.000738143920898
45,6,0.000716924667358
46,6,0.000714778900146
47,6,0.000713109970093
48,6,0.000710964202881
49,6,0.000714063644409
50,6,0.000715017318726
51,6,0.000711917877197
52,6,0.000712871551514
53,6,0.000716924667358
54,6,0.000714063644409
55,6,0.000714063644409
56,6,0.00073504447937
57,6,0.000720024108887
58,6,0.000715017318726
59,6,0.000712871551514
60,6,0.000714063644409
61,6,0.000714063644409
62,6,0.000717163085938
63,6,0.000712871551514
64,6,0.000713109970093
65,6,0.000714063644409
66,6,0.000714063644409
67,6,0.000713109970093
68,6,0.000711917877197
69,6,0.000746011734009
70,6,0.000720024108887
71,6,0.000715017318726
72,6,0.000716924667358
73,6,0.000714063644409
74,6,0.000712871551514
75,6,0.000711917877197
76,6,0.000714063644409
77,6,0.000716924667358
78,6,0.000712156295776
79,6,0.000715970993042
80,6,0.000715017318726
81,6,0.000733852386475
82,6,0.000720977783203
83,6,0.000711917877197
84,6,0.000715970993042
85,6,0.000714063644409
86,6,0.000715017318726
87,6,0.000714063644409
88,6,0.000712871551514
89,6,0.000714063644409
90,6,0.000716924667358
91,6,0.000712156295776
92,6,0.000710964202881
93,6,0.000714063644409
94,6,0.000739097595215
95,6,0.000715017318726
96,6,0.000710964202881
97,6,0.000714063644409
98,6,0.000712871551514
99,6,0.000711917877197
100,6,0.000712156295776
101,6,0.000712156295776
102,6,0.000716924667358
103,6,0.000712871551514
104,6,0.000712156295776
105,6,0.000775814056396
106,6,0.000730991363525
107,6,0.000718832015991
108,6,0.000715017318726
109,6,0.000712156295776
110,6,0.000715017318726
111,6,0.000714063644409
112,6,0.000712871551514
113,6,0.000714063644409
114,6,0.000714063644409
115,6,0.000714063644409
116,6,0.000714063644409
117,6,0.000711917877197
118,6,0.000741958618164
119,6,0.000715970993042
120,6,0.000714778900146
121,6,0.000716924667358
122,6,0.00071382522583
123,6,0.000714063644409
124,6,0.000714063644409
125,6,0.000717163085938
126,6,0.000715017318726
127,6,0.000715970993042
128,6,0.000715017318726
129,6,0.000718116760254
130,6,0.000737905502319
131,6,0.000722169876099
132,6,0.000717163085938
133,6,0.000714063644409
134,6,0.000714063644409
135,6,0.000714063644409
136,6,0.000715017318726
137,6,0.000713109970093
138,6,0.000713109970093
139,6,0.000711917877197
140,6,0.000713109970093
141,6,0.000715017318726
142,6,0.000715970993042
143,6,0.000743865966797
144,6,0.000717878341675
145,6,0.000713109970093
146,6,0.000712871551514
147,6,0.000716209411621
148,6,0.00071382522583
149,6,0.000715970993042
150,6,0.000711917877197
151,6,0.000715017318726
152,6,0.000714063644409
153,6,0.000712871551514
154,6,0.000715017318726
155,6,0.000734090805054
156,6,0.000725030899048
157,6,0.000715017318726
158,6,0.000710010528564
159,6,0.000709056854248
160,6,0.000712871551514
161,6,0.000715970993042
162,6,0.000710010528564
163,6,0.000714063644409
164,6,0.000709056854248
165,6,0.000708818435669
166,6,0.000712156295776
167,6,0.000710010528564
168,6,0.000741004943848
169,6,0.000715017318726
170,6,0.000712871551514
171,6,0.000718116760254
172,6,0.000714063644409
173,6,0.000710964202881
174,6,0.000710964202881
175,6,0.000714063644409
176,6,0.000713109970093
177,6,0.000711917877197
178,6,0.000710964202881
179,6,0.000710010528564
180,6,0.000730037689209
181,6,0.000722169876099
182,6,0.000710010528564
183,6,0.000713109970093
184,6,0.000711917877197
185,6,0.000710010528564
186,6,0.000711917877197
187,6,0.000710964202881
188,6,0.000712871551514
189,6,0.000707149505615
190,6,0.000706911087036
191,6,0.000711917877197
192,6,0.000711917877197
193,6,0.000735998153687
194,6,0.000714063644409
195,6,0.000710964202881
196,6,0.000710964202881
197,6,0.000710010528564
198,6,0.000709772109985
199,6,0.000709056854248
0,7,0.000786066055298
1,7,0.000786066055298
2,7,0.000783920288086
3,7,0.00078296661377
4,7,0.000787019729614
5,7,0.000782012939453
6,7,0.000784158706665
7,7,0.000781059265137
8,7,0.000805854797363
9,7,0.00079083442688
10,7,0.000786781311035
11,7,0.000785112380981
12,7,0.000785112380981
13,7,0.000783920288086
14,7,0.000785112380981
15,7,0.000784158706665
16,7,0.000787019729614
17,7,0.00078296661377
18,7,0.000783205032349
19,7,0.000783920288086
20,7,0.000813961029053
21,7,0.000786066055298
22,7,0.000786066055298
23,7,0.000784158706665
24,7,0.000783920288086
25,7,0.00078296661377
26,7,0.000784158706665
27,7,0.00078296661377
28,7,0.000785112380981
29,7,0.000785827636719
30,7,0.000786066055298
31,7,0.00080394744873
32,7,0.000793933868408
33,7,0.000784873962402
34,7,0.00078296661377
35,7,0.00078296661377
36,7,0.000785112380981
37,7,0.000782012939453
38,7,0.000833034515381
39,7,0.00079083442688
40,7,0.000786066055298
41,7,0.000785827636719
42,7,0.00078296661377
43,7,0.00082802772522
44,7,0.000797033309937
45,7,0.00078296661377
46,7,0.000785112380981
47,7,0.000783920288086
48,7,0.000784158706665
49,7,0.000784158706665
50,7,0.000787019729614
51,7,0.000786066055298
52,7,0.000784873962402
53,7,0.000783920288086
54,7,0.000809907913208
55,7,0.000793933868408
56,7,0.000785112380981
57,7,0.000782012939453
58,7,0.000782012939453
59,7,0.000784873962402
60,7,0.000787019729614
61,7,0.000784873962402
62,7,0.000787019729614
63,7,0.000784158706665
64,7,0.000785827636719
65,7,0.000786066055298
66,7,0.000797986984253
67,7,0.000787019729614
68,7,0.000783205032349
69,7,0.00078296661377
70,7,0.000786066055298
71,7,0.000785827636719
72,7,0.00078296661377
73,7,0.000783920288086
74,7,0.000786066055298
75,7,0.000782012939453
76,7,0.000783205032349
77,7,0.000814199447632
78,7,0.000788927078247
79,7,0.00078296661377
80,7,0.000785112380981
81,7,0.000781059265137
82,7,0.000784873962402
83,7,0.000787019729614
84,7,0.000785112380981
85,7,0.00078010559082
86,7,0.000784158706665
87,7,0.000785827636719
88,7,0.000808954238892
89,7,0.000794887542725
90,7,0.000786066055298
91,7,0.000786066055298
92,7,0.000784158706665
93,7,0.000785112380981
94,7,0.000848054885864
95,7,0.000797033309937
96,7,0.000786066055298
97,7,0.000785112380981
98,7,0.000786066055298
99,7,0.000813961029053
100,7,0.000793933868408
101,7,0.00078296661377
102,7,0.000784158706665
103,7,0.000785827636719
104,7,0.000787019729614
105,7,0.00078296661377
106,7,0.00078010559082
107,7,0.000789880752563
108,7,0.000780820846558
109,7,0.000777959823608
110,7,0.000782012939453
111,7,0.00081205368042
112,7,0.000785112380981
113,7,0.00078296661377
114,7,0.00078296661377
115,7,0.000782012939453
116,7,0.000782012939453
117,7,0.000781059265137
118,7,0.000785827636719
119,7,0.000786066055298
120,7,0.000781774520874
121,7,0.000785827636719
122,7,0.000805854797363
123,7,0.000789880752563
124,7,0.000782012939453
125,7,0.00078296661377
126,7,0.000781059265137
127,7,0.000781059265137
128,7,0.00078296661377
129,7,0.000785827636719
130,7,0.000781059265137
131,7,0.000781059265137
132,7,0.000779867172241
133,7,0.00078296661377
134,7,0.000813961029053
135,7,0.000789165496826
136,7,0.000783920288086
137,7,0.000781059265137
138,7,0.000782012939453
139,7,0.000781059265137
140,7,0.000781059265137
141,7,0.00078296661377
142,7,0.00078296661377
143,7,0.00078296661377
144,7,0.000783920288086
145,7,0.000800132751465
146,7,0.000787019729614
147,7,0.000783920288086
148,7,0.000781059265137
149,7,0.000781059265137
150,7,0.000784873962402
151,7,0.00078296661377
152,7,0.000782012939453
153,7,0.00078296661377
154,7,0.00078296661377
155,7,0.000786066055298
156,7,0.000785112380981
157,7,0.00082802772522
158,7,0.000791072845459
159,7,0.00078296661377
160,7,0.000783920288086
161,7,0.000783920288086
162,7,0.00078296661377
163,7,0.000787019729614
164,7,0.000782012939453
165,7,0.000783920288086
166,7,0.000783205032349
167,7,0.000783920288086
168,7,0.000808954238892
169,7,0.000794172286987
170,7,0.000784873962402
171,7,0.000782012939453
172,7,0.000785827636719
173,7,0.000785112380981
174,7,0.000784873962402
175,7,0.000787019729614
176,7,0.000784158706665
177,7,0.000786066055298
178,7,0.000783920288086
179,7,0.000782012939453
180,7,0.000795125961304
181,7,0.000783920288086
182,7,0.000787019729614
183,7,0.000783920288086
184,7,0.000782012939453
185,7,0.000783920288086
186,7,0.000783205032349
187,7,0.00078010559082
188,7,0.00078296661377
189,7,0.000783920288086
190,7,0.00078296661377
191,7,0.000808000564575
192,7,0.000788927078247
193,7,0.000783920288086
194,7,0.000782012939453
195,7,0.000781059265137
196,7,0.00078296661377
197,7,0.000782012939453
198,7,0.000783920288086
199,7,0.00078296661377
0,8,0.000831127166748
1,8,0.000824928283691
2,8,0.000827074050903
3,8,0.000827074050903
4,8,0.000831842422485
5,8,0.000830888748169
6,8,0.000828981399536
7,8,0.000826835632324
8,8,0.00082802772522
9,8,0.000849962234497
10,8,0.00083589553833
11,8,0.000833034515381
12,8,0.000825881958008
13,8,0.000824928283691
14,8,0.000825881958008
15,8,0.000829935073853
16,8,0.000831127166748
17,8,0.00082802772522
18,8,0.000829935073853
19,8,0.000827074050903
20,8,0.000854015350342
21,8,0.000831842422485
22,8,0.000831127166748
23,8,0.000827074050903
24,8,0.000829935073853
25,8,0.00082802772522
26,8,0.000828981399536
27,8,0.000825881958008
28,8,0.000826120376587
29,8,0.000829935073853
30,8,0.000826835632324
31,8,0.000854969024658
32,8,0.000837087631226
33,8,0.000824928283691
34,8,0.000831842422485
35,8,0.000825881958008
36,8,0.00082802772522
37,8,0.000827074050903
38,8,0.000828981399536
39,8,0.000825881958008
40,8,0.000825881958008
41,8,0.000826835632324
42,8,0.00086498260498
43,8,0.000837087631226
44,8,0.000833988189697
45,8,0.000828981399536
46,8,0.000824928283691
47,8,0.000827074050903
48,8,0.000826835632324
49,8,0.000826835632324
50,8,0.000824928283691
51,8,0.000827789306641
52,8,0.000827074050903
53,8,0.00085186958313
54,8,0.000830888748169
55,8,0.000829935073853
56,8,0.000827074050903
57,8,0.000831842422485
58,8,0.000826120376587
59,8,0.000824928283691
60,8,0.000826120376587
61,8,0.000826120376587
62,8,0.000827074050903
63,8,0.000827074050903
64,8,0.000856876373291
65,8,0.000828981399536
66,8,0.000830888748169
67,8,0.000829935073853
68,8,0.000825881958008
69,8,0.000833034515381
70,8,0.000825881958008
71,8,0.00082802772522
72,8,0.000829935073853
73,8,0.000825881958008
74,8,0.000825881958008
75,8,0.000854969024658
76,8,0.000828981399536
77,8,0.00082802772522
78,8,0.000833034515381
79,8,0.000827074050903
80,8,0.000823974609375
81,8,0.000831127166748
82,8,0.000825881958008
83,8,0.000827074050903
84,8,0.000828981399536
85,8,0.00082802772522
86,8,0.000839948654175
87,8,0.000830888748169
88,8,0.000825881958008
89,8,0.000886917114258
90,8,0.00083589553833
91,8,0.000827074050903
92,8,0.000827074050903
93,8,0.00082802772522
94,8,0.000829935073853
95,8,0.000832080841064
96,8,0.000869989395142
97,8,0.000832796096802
98,8,0.000826835632324
99,8,0.000825881958008
100,8,0.000830888748169
101,8,0.000827074050903
102,8,0.000824928283691
103,8,0.000830888748169
104,8,0.000824928283691
105,8,0.00082802772522
106,8,0.000825881958008
107,8,0.000859975814819
108,8,0.000830888748169
109,8,0.000825166702271
110,8,0.00082802772522
111,8,0.000825881958008
112,8,0.000827074050903
113,8,0.00082802772522
114,8,0.000830888748169
115,8,0.000824928283691
116,8,0.000826120376587
117,8,0.000824928283691
118,8,0.000853061676025
119,8,0.000834941864014
120,8,0.000825166702271
121,8,0.000826835632324
122,8,0.000829935073853
123,8,0.000825166702271
124,8,0.000827074050903
125,8,0.000823974609375
126,8,0.000828981399536
127,8,0.000824928283691
128,8,0.000825881958008
129,8,0.000855922698975
130,8,0.000831127166748
131,8,0.000825881958008
132,8,0.000824928283691
133,8,0.000824928283691
134,8,0.000830888748169
135,8,0.000831127166748
136,8,0.000827074050903
137,8,0.000830888748169
138,8,0.000834941864014
139,8,0.000830888748169
140,8,0.00085711479187
141,8,0.000828981399536
142,8,0.000826120376587
143,8,0.000826835632324
144,8,0.00082802772522
145,8,0.000827074050903
146,8,0.000828981399536
147,8,0.000828981399536
148,8,0.000830888748169
149,8,0.000824928283691
150,8,0.000828981399536
151,8,0.000849008560181
152,8,0.000836849212646
153,8,0.000831127166748
154,8,0.000833034515381
155,8,0.000830173492432
156,8,0.000831842422485
157,8,0.000833034515381
158,8,0.000832080841064
159,8,0.000829935073853
160,8,0.000833988189697
161,8,0.000849962234497
162,8,0.00083589553833
163,8,0.000833988189697
164,8,0.000833034515381
165,8,0.000829935073853
166,8,0.000828981399536
167,8,0.000830888748169
168,8,0.000833034515381
169,8,0.000831127166748
170,8,0.000829935073853
171,8,0.000829935073853
172,8,0.000858068466187
173,8,0.000837802886963
174,8,0.000832796096802
175,8,0.000830888748169
176,8,0.000833988189697
177,8,0.000831127166748
178,8,0.000833988189697
179,8,0.000828981399536
180,8,0.000832080841064
181,8,0.000829935073853
182,8,0.000833034515381
183,8,0.000855922698975
184,8,0.000834941864014
185,8,0.000833988189697
186,8,0.000832080841064
187,8,0.000833034515381
188,8,0.000833034515381
189,8,0.000830888748169
190,8,0.000831127166748
191,8,0.000829935073853
192,8,0.000830888748169
193,8,0.000829935073853
194,8,0.000860929489136
195,8,0.000834941864014
196,8,0.000828981399536
197,8,0.000833988189697
198,8,0.000895977020264
199,8,0.000840902328491
0,9,0.000904083251953
1,9,0.000900983810425
2,9,0.000901937484741
3,9,0.000898838043213
4,9,0.000929117202759
5,9,0.000903129577637
6,9,0.000908851623535
7,9,0.000904083251953
8,9,0.000900030136108
9,9,0.000898838043213
10,9,0.000903844833374
11,9,0.00089693069458
12,9,0.000898122787476
13,9,0.000898838043213
14,9,0.000927209854126
15,9,0.000910043716431
16,9,0.000904083251953
17,9,0.000900983810425
18,9,0.000898122787476
19,9,0.000900030136108
20,9,0.000901222229004
21,9,0.000898838043213
22,9,0.000900030136108
23,9,0.000900983810425
24,9,0.000936031341553
25,9,0.000913858413696
26,9,0.000902891159058
27,9,0.000908136367798
28,9,0.000903844833374
29,9,0.00090503692627
30,9,0.000902891159058
31,9,0.000908136367798
32,9,0.000902891159058
33,9,0.000899076461792
34,9,0.000927925109863
35,9,0.000910997390747
36,9,0.000902891159058
37,9,0.000906944274902
38,9,0.000900983810425
39,9,0.000908136367798
40,9,0.000900983810425
41,9,0.000903129577637
42,9,0.000906944274902
43,9,0.000900983810425
44,9,0.000924110412598
45,9,0.000907897949219
46,9,0.000903844833374
47,9,0.000901937484741
48,9,0.000901937484741
49,9,0.000903844833374
50,9,0.000903129577637
51,9,0.000903129577637
52,9,0.000903844833374
53,9,0.000909090042114
54,9,0.000924825668335
55,9,0.000919103622437
56,9,0.000903129577637
57,9,0.000900983810425
58,9,0.000908136367798
59,9,0.000900983810425
60,9,0.000906944274902
61,9,0.000904083251953
62,9,0.000900983810425
63,9,0.000903844833374
64,9,0.000924825668335
65,9,0.000907897949219
66,9,0.00090503692627
67,9,0.00090217590332
68,9,0.000909090042114
69,9,0.000903129577637
70,9,0.000900983810425
71,9,0.000907897949219
72,9,0.000902891159058
73,9,0.000904083251953
74,9,0.00092887878418
75,9,0.000914812088013
76,9,0.000904083251953
77,9,0.000901937484741
78,9,0.000904083251953
79,9,0.000909090042114
80,9,0.000910043716431
81,9,0.00096607208252
82,9,0.000916004180908
83,9,0.000905990600586
84,9,0.000938892364502
85,9,0.000905990600586
86,9,0.000905990600586
87,9,0.000908851623535
88,9,0.000904083251953
89,9,0.000904083251953
90,9,0.000900030136108
91,9,0.000907182693481
92,9,0.000903844833374
93,9,0.000905990600586
94,9,0.000936031341553
95,9,0.000913143157959
96,9,0.000907897949219
97,9,0.000901937484741
98,9,0.000907897949219
99,9,0.000906944274902
100,9,0.00090503692627
101,9,0.000903844833374
102,9,0.000905990600586
103,9,0.00090479850769
104,9,0.00092601776123
105,9,0.000906944274902
106,9,0.00090479850769
107,9,0.000908851623535
108,9,0.00090503692627
109,9,0.00090217590332
110,9,0.000902891159058
111,9,0.000903844833374
112,9,0.000903844833374
113,9,0.000900983810425
114,9,0.000927209854126
115,9,0.000906944274902
116,9,0.000902891159058
117,9,0.000903129577637
118,9,0.000910997390747
119,9,0.000902891159058
120,9,0.000902891159058
121,9,0.000903844833374
122,9,0.000902891159058
123,9,0.000906944274902
124,9,0.00092887878418
125,9,0.000914096832275
126,9,0.00090503692627
127,9,0.000903844833374
128,9,0.000905990600586
129,9,0.000900983810425
130,9,0.000899076461792
131,9,0.000901937484741
132,9,0.000905990600586
133,9,0.000900030136108
134,9,0.000926971435547
135,9,0.00091290473938
136,9,0.000900983810425
137,9,0.000900983810425
138,9,0.000901937484741
139,9,0.000900030136108
140,9,0.00090503692627
141,9,0.000904083251953
142,9,0.000901937484741
143,9,0.000899076461792
144,9,0.000919818878174
145,9,0.000910043716431
146,9,0.000905990600586
147,9,0.000903129577637
148,9,0.000901937484741
149,9,0.00089693069458
150,9,0.000903129577637
151,9,0.000903844833374
152,9,0.000897169113159
153,9,0.00089693069458
154,9,0.000924110412598
155,9,0.000909805297852
156,9,0.000902891159058
157,9,0.000901222229004
158,9,0.000906944274902
159,9,0.000901937484741
160,9,0.000906229019165
161,9,0.000901937484741
162,9,0.000905990600586
163,9,0.000902891159058
164,9,0.000922918319702
165,9,0.000908851623535
166,9,0.000902891159058
167,9,0.00090217590332
168,9,0.000903844833374
169,9,0.000900983810425
170,9,0.000904083251953
171,9,0.00090503692627
172,9,0.00090217590332
173,9,0.000900030136108
174,9,0.000923156738281
175,9,0.000910997390747
176,9,0.000908136367798
177,9,0.000901937484741
178,9,0.000899076461792
179,9,0.000900030136108
180,9,0.000904083251953
181,9,0.000900983810425
182,9,0.000967979431152
183,9,0.000913858413696
184,9,0.000936031341553
185,9,0.000903844833374
186,9,0.000903129577637
187,9,0.000900030136108
188,9,0.000903844833374
189,9,0.000904083251953
190,9,0.000904083251953
191,9,0.000902891159058
192,9,0.000900983810425
193,9,0.000900030136108
194,9,0.00092601776123
195,9,0.000908136367798
196,9,0.000901937484741
197,9,0.000904083251953
198,9,0.000898838043213
199,9,0.000907897949219
0,10,0.000940084457397
1,10,0.000938177108765
2,10,0.000941038131714
3,10,0.000947952270508
4,10,0.000942945480347
5,10,0.000938892364502
6,10,0.00094199180603
7,10,0.000937938690186
8,10,0.000940084457397
9,10,0.000934839248657
10,10,0.000941038131714
11,10,0.000938892364502
12,10,0.000962018966675
13,10,0.000949859619141
14,10,0.000941038131714
15,10,0.000941038131714
16,10,0.000941038131714
17,10,0.000938892364502
18,10,0.000945091247559
19,10,0.000938177108765
20,10,0.000939130783081
21,10,0.000937938690186
22,10,0.00096607208252
23,10,0.000941038131714
24,10,0.000941038131714
25,10,0.000943183898926
26,10,0.000945091247559
27,10,0.000938177108765
28,10,0.000944852828979
29,10,0.000941038131714
30,10,0.000945091247559
31,10,0.000937938690186
32,10,0.000972032546997
33,10,0.000944137573242
34,10,0.000940799713135
35,10,0.000939130783081
36,10,0.000943899154663
37,10,0.000937938690186
38,10,0.000941038131714
39,10,0.000936985015869
40,10,0.00094199180603
41,10,0.000958919525146
42,10,0.000949144363403
43,10,0.000939846038818
44,10,0.000946044921875
45,10,0.000939846038818
46,10,0.000940084457397
47,10,0.000942945480347
48,10,0.000941038131714
49,10,0.000940084457397
50,10,0.00094199180603
51,10,0.000964879989624
52,10,0.000948905944824
53,10,0.000941038131714
54,10,0.000941038131714
55,10,0.000937938690186
56,10,0.000938892364502
57,10,0.000936985015869
58,10,0.000942945480347
59,10,0.000939130783081
60,10,0.00094199180603
61,10,0.000962018966675
62,10,0.000946998596191
63,10,0.000939130783081
64,10,0.000938892364502
65,10,0.000937938690186
66,10,0.000940084457397
67,10,0.000940084457397
68,10,0.000946044921875
69,10,0.000938177108765
70,10,0.000964164733887
71,10,0.000948905944824
72,10,0.000945091247559
73,10,0.000939846038818
74,10,0.000944137573242
75,10,0.000940084457397
76,10,0.000939846038818
77,10,0.00100088119507
78,10,0.000952959060669
79,10,0.000941038131714
80,10,0.000977039337158
81,10,0.000942945480347
82,10,0.000943899154663
83,10,0.000939846038818
84,10,0.000947952270508
85,10,0.000943899154663
86,10,0.000942945480347
87,10,0.000941038131714
88,10,0.000943183898926
89,10,0.000967025756836
90,10,0.000965118408203
91,10,0.000941038131714
92,10,0.000946044921875
93,10,0.000938892364502
94,10,0.000946044921875
95,10,0.000938892364502
96,10,0.00094199180603
97,10,0.000938892364502
98,10,0.000944852828979
99,10,0.00096321105957
100,10,0.000946998596191
101,10,0.000940084457397
102,10,0.000943899154663
103,10,0.000942945480347
104,10,0.000947952270508
105,10,0.000940799713135
106,10,0.000943899154663
107,10,0.000940084457397
108,10,0.000939846038818
109,10,0.000971078872681
110,10,0.000948905944824
111,10,0.000940799713135
112,10,0.000942945480347
113,10,0.000944852828979
114,10,0.000943183898926
115,10,0.000937938690186
116,10,0.00094199180603
117,10,0.000936985015869
118,10,0.000941038131714
119,10,0.000950813293457
120,10,0.000943899154663
121,10,0.000940084457397
122,10,0.000943899154663
123,10,0.000941038131714
124,10,0.00094199180603
125,10,0.000937938690186
126,10,0.000944137573242
127,10,0.000944137573242
128,10,0.000970840454102
129,10,0.000952005386353
130,10,0.00094199180603
131,10,0.000940799713135
132,10,0.000944137573242
133,10,0.000941038131714
134,10,0.000943183898926
135,10,0.000937223434448
136,10,0.000940799713135
137,10,0.000939130783081
138,10,0.000971794128418
139,10,0.000945091247559
140,10,0.000940799713135
141,10,0.000940084457397
142,10,0.000941038131714
143,10,0.000938892364502
144,10,0.000940084457397
145,10,0.000937938690186
146,10,0.000940084457397
147,10,0.000938892364502
148,10,0.000951051712036
149,10,0.000936985015869
150,10,0.000940084457397
151,10,0.000938892364502
152,10,0.000943183898926
153,10,0.000936031341553
154,10,0.000942945480347
155,10,0.000946044921875
156,10,0.00094199180603
157,10,0.000958919525146
158,10,0.000950813293457
159,10,0.000939130783081
160,10,0.000947952270508
161,10,0.000939130783081
162,10,0.00094199180603
163,10,0.000938892364502
164,10,0.000940084457397
165,10,0.000936985015869
166,10,0.000940799713135
167,10,0.000970125198364
168,10,0.000952005386353
169,10,0.000940084457397
170,10,0.000941038131714
171,10,0.000937938690186
172,10,0.00094199180603
173,10,0.000936031341553
174,10,0.00099778175354
175,10,0.000953912734985
176,10,0.000972986221313
177,10,0.000948905944824
178,10,0.00094199180603
179,10,0.000936031341553
180,10,0.000938892364502
181,10,0.000940799713135
182,10,0.000944137573242
183,10,0.000942945480347
184,10,0.000940084457397
185,10,0.00094199180603
186,10,0.000976085662842
187,10,0.000953197479248
188,10,0.000945091247559
189,10,0.000937938690186
190,10,0.000942945480347
191,10,0.000939846038818
192,10,0.000939846038818
193,10,0.000937938690186
194,10,0.000947952270508
195,10,0.000938892364502
196,10,0.000967979431152
197,10,0.000943899154663
198,10,0.000946044921875
199,10,0.000941038131714
0,11,0.00101399421692
1,11,0.00101208686829
2,11,0.00101590156555
3,11,0.0010130405426
4,11,0.00101518630981
5,11,0.00103807449341
6,11,0.00102710723877
7,11,0.00101399421692
8,11,0.00101518630981
9,11,0.0010130405426
10,11,0.00101399421692
11,11,0.00101709365845
12,11,0.00101017951965
13,11,0.0010130405426
14,11,0.00103807449341
15,11,0.00102305412292
16,11,0.00101804733276
17,11,0.00101399421692
18,11,0.00101804733276
19,11,0.00101208686829
20,11,0.00101399421692
21,11,0.0010130405426
22,11,0.00102114677429
23,11,0.00103211402893
24,11,0.00102400779724
25,11,0.00101590156555
26,11,0.00101685523987
27,11,0.00102019309998
28,11,0.00101685523987
29,11,0.00101399421692
30,11,0.00102114677429
31,11,0.00101494789124
32,11,0.0010359287262
33,11,0.00102400779724
34,11,0.00101399421692
35,11,0.00101208686829
36,11,0.00101399421692
37,11,0.00101113319397
38,11,0.0010130405426
39,11,0.00101184844971
40,11,0.0010130405426
41,11,0.0010130405426
42,11,0.00108814239502
43,11,0.00102806091309
44,11,0.0010199546814
45,11,0.00101613998413
46,11,0.00101494789124
47,11,0.00101113319397
48,11,0.00101280212402
49,11,0.00101184844971
50,11,0.00103807449341
51,11,0.00102400779724
52,11,0.00101685523987
53,11,0.00101399421692
54,11,0.00101685523987
55,11,0.0010130405426
56,11,0.0010130405426
57,11,0.00101399421692
58,11,0.00101399421692
59,11,0.00103402137756
60,11,0.00102591514587
61,11,0.00101208686829
62,11,0.00101494789124
63,11,0.00101399421692
64,11,0.0010130405426
65,11,0.0010130405426
66,11,0.00101184844971
67,11,0.00101494789124
68,11,0.00101494789124
69,11,0.00102400779724
70,11,0.00101685523987
71,11,0.00107789039612
72,11,0.00102686882019
73,11,0.00101518630981
74,11,0.00101709365845
75,11,0.00101494789124
76,11,0.00102114677429
77,11,0.0010449886322
78,11,0.00102210044861
79,11,0.00102019309998
80,11,0.00101494789124
81,11,0.0010199546814
82,11,0.0010199546814
83,11,0.00101494789124
84,11,0.00101399421692
85,11,0.00101804733276
86,11,0.00105094909668
87,11,0.00102806091309
88,11,0.00101900100708
89,11,0.00101280212402
90,11,0.00101280212402
91,11,0.00101208686829
92,11,0.00101399421692
93,11,0.00102210044861
94,11,0.00102210044861
95,11,0.00104403495789
96,11,0.00102686882019
97,11,0.00101518630981
98,11,0.00101494789124
99,11,0.00101089477539
100,11,0.00101804733276
101,11,0.0010199546814
102,11,0.00101494789124
103,11,0.0010130405426
104,11,0.00103402137756
105,11,0.00101900100708
106,11,0.00101399421692
107,11,0.00101685523987
108,11,0.00101590156555
109,11,0.00101399421692
110,11,0.00101685523987
111,11,0.00101399421692
112,11,0.00101399421692
113,11,0.00103211402893
114,11,0.00102806091309
115,11,0.00101709365845
116,11,0.00101804733276
117,11,0.00101399421692
118,11,0.00101494789124
119,11,0.00101184844971
120,11,0.00101900100708
121,11,0.00101685523987
122,11,0.00103497505188
123,11,0.00102591514587
124,11,0.00101494789124
125,11,0.00101494789124
126,11,0.00101518630981
127,11,0.00101399421692
128,11,0.00102090835571
129,11,0.00101184844971
130,11,0.00101017951965
131,11,0.00103211402893
132,11,0.00102305412292
133,11,0.00101804733276
134,11,0.00102090835571
135,11,0.00101208686829
136,11,0.00101613998413
137,11,0.00101399421692
138,11,0.0010130405426
139,11,0.00102090835571
140,11,0.00103688240051
141,11,0.00102090835571
142,11,0.00101494789124
143,11,0.00101280212402
144,11,0.00101709365845
145,11,0.00101399421692
146,11,0.00101399421692
147,11,0.00101399421692
148,11,0.00101494789124
149,11,0.00101399421692
150,11,0.00104403495789
151,11,0.00102305412292
152,11,0.00101900100708
153,11,0.00101804733276
154,11,0.00102710723877
155,11,0.00102090835571
156,11,0.00101900100708
157,11,0.00101590156555
158,11,0.00103998184204
159,11,0.00102615356445
160,11,0.00102591514587
161,11,0.0010838508606
162,11,0.00103187561035
163,11,0.00101900100708
164,11,0.00101900100708
165,11,0.00101900100708
166,11,0.00101900100708
167,11,0.00104594230652
168,11,0.00102710723877
169,11,0.00101685523987
170,11,0.00101900100708
171,11,0.00101900100708
172,11,0.00102114677429
173,11,0.00101590156555
174,11,0.00102210044861
175,11,0.00101900100708
176,11,0.00104093551636
177,11,0.00102186203003
178,11,0.00101613998413
179,11,0.00101399421692
180,11,0.00102210044861
181,11,0.00102090835571
182,11,0.00102090835571
183,11,0.00101900100708
184,11,0.0010199546814
185,11,0.00103902816772
186,11,0.00102210044861
187,11,0.00101685523987
188,11,0.00101900100708
189,11,0.00101804733276
190,11,0.0010199546814
191,11,0.00101494789124
192,11,0.00101900100708
193,11,0.00101900100708
194,11,0.0010359287262
195,11,0.00102305412292
196,11,0.0010199546814
197,11,0.00101900100708
198,11,0.00101900100708
199,11,0.00101590156555
0,12,0.00106406211853
1,12,0.00105810165405
2,12,0.00105786323547
3,12,0.00105714797974
4,12,0.00105619430542
5,12,0.00105714797974
6,12,0.00105810165405
7,12,0.00108194351196
8,12,0.0010678768158
9,12,0.00106000900269
10,12,0.00105500221252
11,12,0.00105595588684
12,12,0.00105595588684
13,12,0.00105500221252
14,12,0.00105714797974
15,12,0.00105500221252
16,12,0.00107789039612
17,12,0.001060962677
18,12,0.00105595588684
19,12,0.00105810165405
20,12,0.00105810165405
21,12,0.00105905532837
22,12,0.00105714797974
23,12,0.00105595588684
24,12,0.00106000900269
25,12,0.00109004974365
26,12,0.00106191635132
27,12,0.00106191635132
28,12,0.00105500221252
29,12,0.00105690956116
30,12,0.00105810165405
31,12,0.00106191635132
32,12,0.00106000900269
33,12,0.00105595588684
34,12,0.00106596946716
35,12,0.00106716156006
36,12,0.00105595588684
37,12,0.00105810165405
38,12,0.00105500221252
39,12,0.00105619430542
40,12,0.00105595588684
41,12,0.00105786323547
42,12,0.00112104415894
43,12,0.00107502937317
44,12,0.00105786323547
45,12,0.00105595588684
46,12,0.00105309486389
47,12,0.00105714797974
48,12,0.00105881690979
49,12,0.0010621547699
50,12,0.00105810165405
51,12,0.00108599662781
52,12,0.00106000900269
53,12,0.00105595588684
54,12,0.00105595588684
55,12,0.00106501579285
56,12,0.00105404853821
57,12,0.00105905532837
58,12,0.001060962677
59,12,0.00105905532837
60,12,0.00108504295349
61,12,0.00106000900269
62,12,0.00106501579285
63,12,0.00105905532837
64,12,0.00105905532837
65,12,0.00105595588684
66,12,0.00105810165405
67,12,0.00111889839172
68,12,0.00111293792725
69,12,0.00107002258301
70,12,0.00105690956116
71,12,0.00105905532837
72,12,0.00105810165405
73,12,0.00105595588684
74,12,0.00106287002563
75,12,0.00105595588684
76,12,0.00105595588684
77,12,0.00110197067261
78,12,0.001060962677
79,12,0.00105810165405
80,12,0.00105404853821
81,12,0.00105595588684
82,12,0.00105905532837
83,12,0.00105810165405
84,12,0.00106310844421
85,12,0.00107908248901
86,12,0.00106596946716
87,12,0.00105786323547
88,12,0.00105690956116
89,12,0.00105714797974
90,12,0.00106000900269
91,12,0.00105690956116
92,12,0.00105595588684
93,12,0.00105810165405
94,12,0.00108599662781
95,12,0.00106596946716
96,12,0.00106287002563
97,12,0.00106000900269
98,12,0.00105810165405
99,12,0.00105595588684
100,12,0.00105595588684
101,12,0.00106406211853
102,12,0.00105595588684
103,12,0.00109004974365
104,12,0.001060962677
105,12,0.001060962677
106,12,0.00105714797974
107,12,0.00105500221252
108,12,0.00105404853821
109,12,0.00105595588684
110,12,0.001060962677
111,12,0.0010769367218
112,12,0.00105977058411
113,12,0.00105500221252
114,12,0.001051902771
115,12,0.00106000900269
116,12,0.00105309486389
117,12,0.00105500221252
118,12,0.001060962677
119,12,0.00106000900269
120,12,0.0010781288147
121,12,0.00106906890869
122,12,0.00106000900269
123,12,0.00105595588684
124,12,0.00105595588684
125,12,0.00105810165405
126,12,0.00105595588684
127,12,0.00105381011963
128,12,0.00105404853821
129,12,0.00108194351196
130,12,0.00105905532837
131,12,0.00105786323547
132,12,0.00105619430542
133,12,0.00105690956116
134,12,0.001051902771
135,12,0.00106000900269
136,12,0.00105905532837
137,12,0.00105714797974
138,12,0.00108885765076
139,12,0.00105881690979
140,12,0.00105595588684
141,12,0.00106120109558
142,12,0.00105500221252
143,12,0.00105619430542
144,12,0.00105595588684
145,12,0.00106310844421
146,12,0.00108313560486
147,12,0.001060962677
148,12,0.00105404853821
149,12,0.00105381011963
150,12,0.001051902771
151,12,0.00105404853821
152,12,0.00105285644531
153,12,0.00105619430542
154,12,0.0011260509491
155,12,0.00111389160156
156,12,0.00106287002563
157,12,0.00105786323547
158,12,0.00105595588684
159,12,0.00105905532837
160,12,0.00105690956116
161,12,0.00105500221252
162,12,0.00105810165405
163,12,0.00108695030212
164,12,0.00107502937317
165,12,0.00106000900269
166,12,0.00105595588684
167,12,0.00105619430542
168,12,0.0010621547699
169,12,0.00105404853821
170,12,0.00105404853821
171,12,0.00105404853821
172,12,0.00108313560486
173,12,0.00106692314148
174,12,0.00105500221252
175,12,0.00105595588684
176,12,0.00106120109558
177,12,0.00105690956116
178,12,0.00105404853821
179,12,0.00105500221252
180,12,0.00105595588684
181,12,0.00108194351196
182,12,0.00105810165405
183,12,0.00105309486389
184,12,0.00105404853821
185,12,0.00105500221252
186,12,0.00106000900269
187,12,0.00106191635132
188,12,0.00105404853821
189,12,0.00105285644531
190,12,0.00106716156006
191,12,0.00105905532837
192,12,0.00105500221252
193,12,0.00105690956116
194,12,0.00105404853821
195,12,0.00106191635132
196,12,0.00105500221252
197,12,0.00105500221252
198,12,0.00107908248901
199,12,0.00106501579285
0,13,0.00113201141357
1,13,0.00114488601685
2,13,0.00113892555237
3,13,0.00113701820374
4,13,0.00113701820374
5,13,0.00113010406494
6,13,0.00113391876221
7,13,0.00113892555237
8,13,0.00112795829773
9,13,0.00115489959717
10,13,0.00113201141357
11,13,0.00113391876221
12,13,0.0011260509491
13,13,0.00113701820374
14,13,0.00113296508789
15,13,0.00113487243652
16,13,0.00113582611084
17,13,0.00116300582886
18,13,0.00114417076111
19,13,0.00113987922668
20,13,0.00112986564636
21,13,0.00113487243652
22,13,0.00113105773926
23,13,0.00113296508789
24,13,0.00113010406494
25,13,0.00115394592285
26,13,0.00113391876221
27,13,0.00113320350647
28,13,0.00113701820374
29,13,0.00113487243652
30,13,0.00112915039062
31,13,0.00113201141357
32,13,0.00112700462341
33,13,0.00114893913269
34,13,0.0011420249939
35,13,0.00113582611084
36,13,0.00113010406494
37,13,0.00113296508789
38,13,0.00112891197205
39,13,0.00113320350647
40,13,0.00113677978516
41,13,0.00115203857422
42,13,0.00113797187805
43,13,0.00113391876221
44,13,0.00112915039062
45,13,0.00113296508789
46,13,0.00112891197205
47,13,0.00113892555237
48,13,0.00112891197205
49,13,0.00112986564636
50,13,0.00114393234253
51,13,0.00113010406494
52,13,0.00112795829773
53,13,0.00113296508789
54,13,0.00112891197205
55,13,0.00113892555237
56,13,0.00112795829773
57,13,0.00112915039062
58,13,0.00116610527039
59,13,0.00114178657532
60,13,0.00113105773926
61,13,0.00113201141357
62,13,0.00119996070862
63,13,0.0011420249939
64,13,0.00112891197205
65,13,0.00113201141357
66,13,0.00114393234253
67,13,0.00113582611084
68,13,0.00113010406494
69,13,0.0011420249939
70,13,0.00113701820374
71,13,0.00113987922668
72,13,0.00113296508789
73,13,0.00113296508789
74,13,0.0011670589447
75,13,0.00114011764526
76,13,0.00113391876221
77,13,0.00113487243652
78,13,0.00113201141357
79,13,0.00113487243652
80,13,0.001140832901
81,13,0.00113892555237
82,13,0.00116109848022
83,13,0.00113606452942
84,13,0.00113606452942
85,13,0.00113391876221
86,13,0.00113391876221
87,13,0.00113105773926
88,13,0.00112795829773
89,13,0.00113892555237
90,13,0.00115919113159
91,13,0.00113797187805
92,13,0.00113797187805
93,13,0.00113201141357
94,13,0.00112986564636
95,13,0.00112986564636
96,13,0.00113415718079
97,13,0.00113701820374
98,13,0.00115203857422
99,13,0.00115990638733
100,13,0.00113892555237
101,13,0.00113797187805
102,13,0.00113010406494
103,13,0.00113201141357
104,13,0.00112891197205
105,13,0.00113296508789
106,13,0.00114798545837
107,13,0.00114703178406
108,13,0.00113296508789
109,13,0.00113201141357
110,13,0.00113105773926
111,13,0.00113081932068
112,13,0.00113105773926
113,13,0.00113296508789
114,13,0.00113487243652
115,13,0.00113821029663
116,13,0.00113201141357
117,13,0.00113201141357
118,13,0.00113487243652
119,13,0.00113201141357
120,13,0.00112891197205
121,13,0.00113487243652
122,13,0.00113701820374
123,13,0.00115513801575
124,13,0.00113606452942
125,13,0.00113010406494
126,13,0.00113081932068
127,13,0.00113296508789
128,13,0.00113701820374
129,13,0.00112986564636
130,13,0.00113010406494
131,13,0.00116086006165
132,13,0.00113487243652
133,13,0.00113606452942
134,13,0.00113892555237
135,13,0.00113701820374
136,13,0.00112915039062
137,13,0.00113487243652
138,13,0.00113987922668
139,13,0.00121307373047
140,13,0.00114798545837
141,13,0.00113201141357
142,13,0.00113105773926
143,13,0.00112795829773
144,13,0.00120520591736
145,13,0.001140832901
146,13,0.00113391876221
147,13,0.0011670589447
148,13,0.00113892555237
149,13,0.00113797187805
150,13,0.00113201141357
151,13,0.00113296508789
152,13,0.00112986564636
153,13,0.00113010406494
154,13,0.00113391876221
155,13,0.00115609169006
156,13,0.00113391876221
157,13,0.00113415718079
158,13,0.00113606452942
159,13,0.00113105773926
160,13,0.00113415718079
161,13,0.00113105773926
162,13,0.00113487243652
163,13,0.00114917755127
164,13,0.00114393234253
165,13,0.00113105773926
166,13,0.00113201141357
167,13,0.00113797187805
168,13,0.00113797187805
169,13,0.00113606452942
170,13,0.00113415718079
171,13,0.0011510848999
172,13,0.00114512443542
173,13,0.00113892555237
174,13,0.00113797187805
175,13,0.00113201141357
176,13,0.00113201141357
177,13,0.00114107131958
178,13,0.00113201141357
179,13,0.00113701820374
180,13,0.00116205215454
181,13,0.00113606452942
182,13,0.001140832901
183,13,0.001140832901
184,13,0.00113487243652
185,13,0.0011351108551
186,13,0.0011351108551
187,13,0.00113487243652
188,13,0.00116014480591
189,13,0.00113797187805
190,13,0.00113606452942
191,13,0.00113391876221
192,13,0.0011351108551
193,13,0.00114297866821
194,13,0.00113701820374
195,13,0.00113201141357
196,13,0.00116014480591
197,13,0.00114107131958
198,13,0.0011420249939
199,13,0.0011351108551
0,14,0.00125098228455
1,14,0.00119280815125
2,14,0.00117897987366
3,14,0.00117516517639
4,14,0.00117492675781
5,14,0.0011739730835
6,14,0.00117611885071
7,14,0.00117611885071
8,14,0.00119996070862
9,14,0.00118088722229
10,14,0.00117516517639
11,14,0.00117611885071
12,14,0.00117802619934
13,14,0.0011739730835
14,14,0.00117301940918
15,14,0.0011739730835
16,14,0.00120615959167
17,14,0.00118017196655
18,14,0.00117683410645
19,14,0.00117611885071
20,14,0.00117588043213
21,14,0.00117707252502
22,14,0.00117802619934
23,14,0.00118398666382
24,14,0.00120186805725
25,14,0.00117993354797
26,14,0.00117611885071
27,14,0.00117492675781
28,14,0.00117707252502
29,14,0.00117492675781
30,14,0.00117802619934
31,14,0.00117421150208
32,14,0.00120401382446
33,14,0.0011830329895
34,14,0.00118279457092
35,14,0.00118017196655
36,14,0.00117993354797
37,14,0.0011830329895
38,14,0.00117707252502
39,14,0.00119805335999
40,14,0.0011899471283
41,14,0.00117611885071
42,14,0.00117897987366
43,14,0.00117802619934
44,14,0.00117802619934
45,14,0.00117516517639
46,14,0.00117802619934
47,14,0.00119495391846
48,14,0.00118398666382
49,14,0.00117897987366
50,14,0.00118708610535
51,14,0.00117897987366
52,14,0.00118589401245
53,14,0.00117993354797
54,14,0.00118112564087
55,14,0.00120496749878
56,14,0.00118684768677
57,14,0.00117802619934
58,14,0.00117897987366
59,14,0.00125408172607
60,14,0.00119185447693
61,14,0.00118017196655
62,14,0.00118112564087
63,14,0.00121283531189
64,14,0.00117993354797
65,14,0.00119090080261
66,14,0.00117897987366
67,14,0.00117588043213
68,14,0.00117993354797
69,14,0.00117897987366
70,14,0.00119805335999
71,14,0.00118899345398
72,14,0.00117993354797
73,14,0.00117802619934
74,14,0.00118017196655
75,14,0.00118398666382
76,14,0.00117993354797
77,14,0.00117802619934
78,14,0.00119709968567
79,14,0.00118684768677
80,14,0.00117897987366
81,14,0.00117993354797
82,14,0.00117993354797
83,14,0.00117993354797
84,14,0.00117897987366
85,14,0.00117516517639
86,14,0.00119996070862
87,14,0.00119018554688
88,14,0.00117993354797
89,14,0.00117897987366
90,14,0.00118088722229
91,14,0.00117588043213
92,14,0.00117611885071
93,14,0.00117802619934
94,14,0.00119686126709
95,14,0.00118684768677
96,14,0.00118398666382
97,14,0.00118017196655
98,14,0.00117897987366
99,14,0.00118207931519
100,14,0.00118780136108
101,14,0.00117707252502
102,14,0.00128316879272
103,14,0.00119018554688
104,14,0.00118017196655
105,14,0.00118207931519
106,14,0.00117897987366
107,14,0.00117897987366
108,14,0.00117897987366
109,14,0.00117993354797
110,14,0.0012218952179
111,14,0.00118803977966
112,14,0.00117707252502
113,14,0.0011739730835
114,14,0.00118088722229
115,14,0.00117897987366
116,14,0.0011739730835
117,14,0.0011739730835
118,14,0.00118613243103
119,14,0.00118017196655
120,14,0.00117516517639
121,14,0.0011739730835
122,14,0.00117802619934
123,14,0.00117492675781
124,14,0.00117516517639
125,14,0.00119495391846
126,14,0.00118589401245
127,14,0.00117707252502
128,14,0.00117921829224
129,14,0.00117707252502
130,14,0.00117516517639
131,14,0.0011739730835
132,14,0.00117802619934
133,14,0.00119781494141
134,14,0.00118684768677
135,14,0.00118088722229
136,14,0.00117492675781
137,14,0.00117611885071
138,14,0.00124001502991
139,14,0.00119304656982
140,14,0.00117897987366
141,14,0.00120711326599
142,14,0.00118184089661
143,14,0.00117516517639
144,14,0.00117492675781
145,14,0.00117588043213
146,14,0.00117802619934
147,14,0.00118398666382
148,14,0.00117921829224
149,14,0.00120210647583
150,14,0.00118207931519
151,14,0.0011739730835
152,14,0.00117683410645
153,14,0.00117802619934
154,14,0.00117492675781
155,14,0.00117897987366
156,14,0.00117492675781
157,14,0.0011990070343
158,14,0.00118398666382
159,14,0.00117897987366
160,14,0.00117611885071
161,14,0.00117611885071
162,14,0.00117707252502
163,14,0.00117516517639
164,14,0.0011830329895
165,14,0.00118803977966
166,14,0.00117802619934
167,14,0.00118494033813
168,14,0.00118398666382
169,14,0.00117492675781
170,14,0.00117301940918
171,14,0.00117492675781
172,14,0.00119495391846
173,14,0.00118708610535
174,14,0.00117683410645
175,14,0.00117492675781
176,14,0.0011739730835
177,14,0.00117301940918
178,14,0.00117707252502
179,14,0.00117707252502
180,14,0.0011990070343
181,14,0.00118494033813
182,14,0.00117683410645
183,14,0.0011830329895
184,14,0.00117993354797
185,14,0.00118494033813
186,14,0.00117492675781
187,14,0.00117611885071
188,14,0.00119519233704
189,14,0.00119304656982
190,14,0.00117993354797
191,14,0.0011830329895
192,14,0.00117588043213
193,14,0.00117492675781
194,14,0.00117516517639
195,14,0.00117897987366
196,14,0.00119590759277
197,14,0.00118899345398
198,14,0.00117707252502
199,14,0.00117707252502
0,15,0.00125002861023
1,15,0.00125002861023
2,15,0.00124788284302
3,15,0.00127100944519
4,15,0.00126194953918
5,15,0.0012481212616
6,15,0.00125598907471
7,15,0.00124597549438
8,15,0.0012481212616
9,15,0.00124597549438
10,15,0.00124788284302
11,15,0.00126791000366
12,15,0.00125193595886
13,15,0.0012481212616
14,15,0.00124716758728
15,15,0.00124597549438
16,15,0.00125098228455
17,15,0.00124597549438
18,15,0.00126695632935
19,15,0.00125885009766
20,15,0.00124788284302
21,15,0.00124502182007
22,15,0.0012469291687
23,15,0.00124597549438
24,15,0.00124502182007
25,15,0.0012469291687
26,15,0.00126791000366
27,15,0.00125813484192
28,15,0.0012469291687
29,15,0.00124502182007
30,15,0.00124979019165
31,15,0.00125098228455
32,15,0.00124597549438
33,15,0.00126600265503
34,15,0.00126791000366
35,15,0.0012538433075
36,15,0.00125598907471
37,15,0.00125098228455
38,15,0.00124788284302
39,15,0.00124597549438
40,15,0.00124788284302
41,15,0.0012800693512
42,15,0.00124907493591
43,15,0.00124788284302
44,15,0.0012481212616
45,15,0.00124597549438
46,15,0.00125217437744
47,15,0.00124716758728
48,15,0.00126504898071
49,15,0.00125408172607
50,15,0.0012469291687
51,15,0.00124502182007
52,15,0.0012469291687
53,15,0.0012469291687
54,15,0.00125098228455
55,15,0.00135111808777
56,15,0.00126910209656
57,15,0.00125503540039
58,15,0.0012469291687
59,15,0.0012469291687
60,15,0.00125098228455
61,15,0.00124788284302
62,15,0.00125002861023
63,15,0.00127005577087
64,15,0.00125908851624
65,15,0.0012469291687
66,15,0.00124883651733
67,15,0.0012469291687
68,15,0.00125598907471
69,15,0.00125312805176
70,15,0.00127410888672
71,15,0.00125503540039
72,15,0.00125503540039
73,15,0.00124788284302
74,15,0.00125503540039
75,15,0.00125598907471
76,15,0.0012469291687
77,15,0.00124502182007
78,15,0.00125908851624
79,15,0.00124907493591
80,15,0.00124907493591
81,15,0.0012481212616
82,15,0.00124907493591
83,15,0.00124979019165
84,15,0.00125098228455
85,15,0.00126886367798
86,15,0.0012538433075
87,15,0.00124883651733
88,15,0.00125002861023
89,15,0.00124597549438
90,15,0.00125098228455
91,15,0.00125122070312
92,15,0.00127482414246
93,15,0.00125598907471
94,15,0.00124907493591
95,15,0.00124788284302
96,15,0.00124979019165
97,15,0.00125098228455
98,15,0.00125408172607
99,15,0.00124597549438
100,15,0.00126981735229
101,15,0.00125098228455
102,15,0.00125217437744
103,15,0.00125288963318
104,15,0.0012481212616
105,15,0.00124597549438
106,15,0.00125598907471
107,15,0.00127100944519
108,15,0.00127100944519
109,15,0.00125598907471
110,15,0.00124788284302
111,15,0.00124597549438
112,15,0.0012481212616
113,15,0.00124597549438
114,15,0.00125217437744
115,15,0.00126981735229
116,15,0.00126099586487
117,15,0.0012538433075
118,15,0.00124907493591
119,15,0.0012469291687
120,15,0.00125002861023
121,15,0.00125002861023
122,15,0.00126791000366
123,15,0.00125408172607
124,15,0.00125122070312
125,15,0.0012538433075
126,15,0.00124979019165
127,15,0.00124597549438
128,15,0.00124597549438
129,15,0.00124597549438
130,15,0.00133800506592
131,15,0.00127577781677
132,15,0.00125193595886
133,15,0.00124597549438
134,15,0.0012469291687
135,15,0.00133299827576
136,15,0.0012629032135
137,15,0.00129508972168
138,15,0.00126099586487
139,15,0.00125503540039
140,15,0.00124382972717
141,15,0.00124597549438
142,15,0.00124716758728
143,15,0.00124907493591
144,15,0.00126814842224
145,15,0.00126600265503
146,15,0.00124788284302
147,15,0.0012538433075
148,15,0.0012481212616
149,15,0.00125789642334
150,15,0.00125789642334
151,15,0.00125002861023
152,15,0.00127100944519
153,15,0.00125503540039
154,15,0.00125312805176
155,15,0.00125503540039
156,15,0.00125193595886
157,15,0.00124788284302
158,15,0.0012469291687
159,15,0.00133800506592
160,15,0.00126314163208
161,15,0.00125193595886
162,15,0.00124716758728
163,15,0.00125312805176
164,15,0.00125503540039
165,15,0.0012538433075
166,15,0.00127387046814
167,15,0.00125694274902
168,15,0.00124716758728
169,15,0.00124716758728
170,15,0.00125002861023
171,15,0.00125503540039
172,15,0.0012538433075
173,15,0.0012481212616
174,15,0.00127100944519
175,15,0.00125122070312
176,15,0.00124716758728
177,15,0.00124907493591
178,15,0.00125598907471
179,15,0.00125598907471
180,15,0.00124788284302
181,15,0.00127410888672
182,15,0.00126814842224
183,15,0.00125098228455
184,15,0.00128293037415
185,15,0.00126886367798
186,15,0.00124883651733
187,15,0.00125598907471
188,15,0.00124716758728
189,15,0.00127482414246
190,15,0.00125408172607
191,15,0.00125122070312
192,15,0.00126910209656
193,15,0.0012538433075
194,15,0.00126099586487
195,15,0.0012481212616
196,15,0.00127792358398
197,15,0.00127696990967
198,15,0.00125908851624
199,15,0.00125789642334
0,16,0.00129795074463
1,16,0.00131893157959
2,16,0.00130605697632
3,16,0.00129699707031
4,16,0.00129699707031
5,16,0.00129699707031
6,16,0.00129699707031
7,16,0.00129699707031
8,16,0.001296043396
9,16,0.00131487846375
10,16,0.00130796432495
11,16,0.001296043396
12,16,0.001296043396
13,16,0.0012948513031
14,16,0.001296043396
15,16,0.00129413604736
16,16,0.00139307975769
17,16,0.0013120174408
18,16,0.00129890441895
19,16,0.00129699707031
20,16,0.00129985809326
21,16,0.00129508972168
22,16,0.00130009651184
23,16,0.00133895874023
24,16,0.0013120174408
25,16,0.001296043396
26,16,0.00129413604736
27,16,0.00130391120911
28,16,0.00130796432495
29,16,0.00129294395447
30,16,0.0013210773468
31,16,0.00130009651184
32,16,0.00129580497742
33,16,0.00129508972168
34,16,0.001296043396
35,16,0.001296043396
36,16,0.00130200386047
37,16,0.00134992599487
38,16,0.00134587287903
39,16,0.00133085250854
40,16,0.00130105018616
41,16,0.00130391120911
42,16,0.00129508972168
43,16,0.00130081176758
44,16,0.00132298469543
45,16,0.00130796432495
46,16,0.00130009651184
47,16,0.00129699707031
48,16,0.00129389762878
49,16,0.001296043396
50,16,0.00129580497742
51,16,0.00131583213806
52,16,0.00137805938721
53,16,0.00130486488342
54,16,0.00129818916321
55,16,0.001296043396
56,16,0.00130796432495
57,16,0.00130414962769
58,16,0.00132417678833
59,16,0.00130605697632
60,16,0.00129699707031
61,16,0.00129795074463
62,16,0.00129985809326
63,16,0.00130295753479
64,16,0.00130295753479
65,16,0.00129389762878
66,16,0.00130987167358
67,16,0.00130009651184
68,16,0.00129795074463
69,16,0.00129795074463
70,16,0.001296043396
71,16,0.00129389762878
72,16,0.00129699707031
73,16,0.00132298469543
74,16,0.00130200386047
75,16,0.00130414962769
76,16,0.00129699707031
77,16,0.0012948513031
78,16,0.00129389762878
79,16,0.00130605697632
80,16,0.00132203102112
81,16,0.00130200386047
82,16,0.00129699707031
83,16,0.001296043396
84,16,0.001296043396
85,16,0.00129508972168
86,16,0.001296043396
87,16,0.00131988525391
88,16,0.00130295753479
89,16,0.00129699707031
90,16,0.00129890441895
91,16,0.00130391120911
92,16,0.00129699707031
93,16,0.001296043396
94,16,0.00131797790527
95,16,0.0013120174408
96,16,0.00130200386047
97,16,0.00129890441895
98,16,0.00130486488342
99,16,0.001296043396
100,16,0.00129413604736
101,16,0.00131702423096
102,16,0.00130701065063
103,16,0.00130200386047
104,16,0.00129795074463
105,16,0.00129818916321
106,16,0.001296043396
107,16,0.00129389762878
108,16,0.001296043396
109,16,0.00137186050415
110,16,0.00129985809326
111,16,0.00129580497742
112,16,0.00129795074463
113,16,0.00129818916321
114,16,0.00130796432495
115,16,0.00129389762878
116,16,0.00132179260254
117,16,0.00130105018616
118,16,0.00130009651184
119,16,0.00129508972168
120,16,0.00129914283752
121,16,0.00130391120911
122,16,0.00129508972168
123,16,0.00131893157959
124,16,0.00136995315552
125,16,0.00131487846375
126,16,0.00130009651184
127,16,0.001296043396
128,16,0.00129699707031
129,16,0.00129389762878
130,16,0.00133991241455
131,16,0.00130200386047
132,16,0.00129580497742
133,16,0.00129413604736
134,16,0.001296043396
135,16,0.00129580497742
136,16,0.00130009651184
137,16,0.00132608413696
138,16,0.00130391120911
139,16,0.00130295753479
140,16,0.00130295753479
141,16,0.0012948513031
142,16,0.00130009651184
143,16,0.00130200386047
144,16,0.00131392478943
145,16,0.00130295753479
146,16,0.00129795074463
147,16,0.001296043396
148,16,0.00129890441895
149,16,0.0012948513031
150,16,0.00129795074463
151,16,0.00131988525391
152,16,0.00131297111511
153,16,0.00129699707031
154,16,0.00129890441895
155,16,0.00130200386047
156,16,0.0012948513031
157,16,0.00129294395447
158,16,0.0012948513031
159,16,0.00132393836975
160,16,0.00130200386047
161,16,0.00129294395447
162,16,0.00129389762878
163,16,0.00129508972168
164,16,0.001296043396
165,16,0.00129795074463
166,16,0.0013279914856
167,16,0.0013120174408
168,16,0.00129699707031
169,16,0.00129413604736
170,16,0.00129508972168
171,16,0.00129985809326
172,16,0.00129890441895
173,16,0.00131607055664
174,16,0.00130105018616
175,16,0.00129413604736
176,16,0.00130295753479
177,16,0.00130295753479
178,16,0.00129508972168
179,16,0.00129389762878
180,16,0.00131416320801
181,16,0.001305103302
182,16,0.00130701065063
183,16,0.00129699707031
184,16,0.00129508972168
185,16,0.00129389762878
186,16,0.001296043396
187,16,0.00131607055664
188,16,0.00130820274353
189,16,0.00130295753479
190,16,0.00129699707031
191,16,0.00130200386047
192,16,0.00129389762878
193,16,0.00129389762878
194,16,0.00129699707031
195,16,0.00132012367249
196,16,0.00137495994568
197,16,0.00130701065063
198,16,0.00129795074463
199,16,0.00129699707031
0,17,0.00137996673584
1,17,0.00140118598938
2,17,0.00137805938721
3,17,0.00137305259705
4,17,0.00137400627136
5,17,0.00137400627136
6,17,0.00137686729431
7,17,0.00137305259705
8,17,0.00142097473145
9,17,0.00138783454895
10,17,0.00137686729431
11,17,0.00137805938721
12,17,0.00137090682983
13,17,0.00137090682983
14,17,0.00140404701233
15,17,0.00139117240906
16,17,0.00137591362
17,17,0.00138401985168
18,17,0.00138092041016
19,17,0.00137090682983
20,17,0.00138115882874
21,17,0.00140500068665
22,17,0.00138592720032
23,17,0.00137400627136
24,17,0.00137710571289
25,17,0.00137495994568
26,17,0.00137281417847
27,17,0.00137495994568
28,17,0.00140190124512
29,17,0.00138092041016
30,17,0.00137519836426
31,17,0.00137877464294
32,17,0.00137186050415
33,17,0.00137400627136
34,17,0.00137305259705
35,17,0.00141096115112
36,17,0.00138902664185
37,17,0.00137209892273
38,17,0.00137400627136
39,17,0.00137495994568
40,17,0.00138401985168
41,17,0.00137305259705
42,17,0.0014021396637
43,17,0.00138807296753
44,17,0.00137615203857
45,17,0.00137186050415
46,17,0.00137114524841
47,17,0.00137996673584
48,17,0.00148296356201
49,17,0.0014009475708
50,17,0.00138092041016
51,17,0.00137495994568
52,17,0.00137710571289
53,17,0.00137591362
54,17,0.00137996673584
55,17,0.00141000747681
56,17,0.00137782096863
57,17,0.00137400627136
58,17,0.00137305259705
59,17,0.00137686729431
60,17,0.00137710571289
61,17,0.00137495994568
62,17,0.00140500068665
63,17,0.00138998031616
64,17,0.00137281417847
65,17,0.00137805938721
66,17,0.00137495994568
67,17,0.00137209892273
68,17,0.00138211250305
69,17,0.00140810012817
70,17,0.00137686729431
71,17,0.00137591362
72,17,0.00138401985168
73,17,0.00137400627136
74,17,0.00137591362
75,17,0.0014021396637
76,17,0.00141310691833
77,17,0.001384973526
78,17,0.00137591362
79,17,0.00137710571289
80,17,0.00138306617737
81,17,0.00137400627136
82,17,0.00139784812927
83,17,0.00138401985168
84,17,0.00137782096863
85,17,0.00137090682983
86,17,0.00137591362
87,17,0.00137710571289
88,17,0.00137495994568
89,17,0.00141096115112
90,17,0.00138092041016
91,17,0.00137686729431
92,17,0.00138401985168
93,17,0.00137090682983
94,17,0.00137996673584
95,17,0.00138306617737
96,17,0.00140500068665
97,17,0.00137996673584
98,17,0.00137591362
99,17,0.00137400627136
100,17,0.00137400627136
101,17,0.00137090682983
102,17,0.00138211250305
103,17,0.00139403343201
104,17,0.00137901306152
105,17,0.00138306617737
106,17,0.00137400627136
107,17,0.00137495994568
108,17,0.001384973526
109,17,0.00140309333801
110,17,0.00139188766479
111,17,0.00137805938721
112,17,0.00138211250305
113,17,0.00137400627136
114,17,0.00138282775879
115,17,0.00137400627136
116,17,0.0014808177948
117,17,0.00139093399048
118,17,0.001384973526
119,17,0.00138688087463
120,17,0.00137495994568
121,17,0.00137495994568
122,17,0.00137495994568
123,17,0.00141716003418
124,17,0.00137901306152
125,17,0.00137996673584
126,17,0.00137615203857
127,17,0.00137495994568
128,17,0.00138187408447
129,17,0.00139904022217
130,17,0.00139284133911
131,17,0.00138401985168
132,17,0.00137305259705
133,17,0.00137209892273
134,17,0.00137305259705
135,17,0.00138092041016
136,17,0.00147604942322
137,17,0.00140786170959
138,17,0.00137400627136
139,17,0.00137710571289
140,17,0.00137305259705
141,17,0.00137591362
142,17,0.00137090682983
143,17,0.00142002105713
144,17,0.00138187408447
145,17,0.00137495994568
146,17,0.00137901306152
147,17,0.00138688087463
148,17,0.00137209892273
149,17,0.00137186050415
150,17,0.00141286849976
151,17,0.00138306617737
152,17,0.00137305259705
153,17,0.00137305259705
154,17,0.00137400627136
155,17,0.00137305259705
156,17,0.00137209892273
157,17,0.00139093399048
158,17,0.00137400627136
159,17,0.00137090682983
160,17,0.00137901306152
161,17,0.00137209892273
162,17,0.00137090682983
163,17,0.00139498710632
164,17,0.00138807296753
165,17,0.00137615203857
166,17,0.00138092041016
167,17,0.00137090682983
168,17,0.00138115882874
169,17,0.00137281417847
170,17,0.00139379501343
171,17,0.00137710571289
172,17,0.00137090682983
173,17,0.00137710571289
174,17,0.00137400627136
175,17,0.00136995315552
176,17,0.0013701915741
177,17,0.00140500068665
178,17,0.00138592720032
179,17,0.00137495994568
180,17,0.00137186050415
181,17,0.00137305259705
182,17,0.00137114524841
183,17,0.00138092041016
184,17,0.00147581100464
185,17,0.00138998031616
186,17,0.00137400627136
187,17,0.00137901306152
188,17,0.00138306617737
189,17,0.00137305259705
190,17,0.00140190124512
191,17,0.00139212608337
192,17,0.00137305259705
193,17,0.00137186050415
194,17,0.00136804580688
195,17,0.00138092041016
196,17,0.00137090682983
197,17,0.00140404701233
198,17,0.00137805938721
199,17,0.00137305259705
0,18,0.00145196914673
1,18,0.00142002105713
2,18,0.00141286849976
3,18,0.00141191482544
4,18,0.00141096115112
5,18,0.0014181137085
6,18,0.00141501426697
7,18,0.0014500617981
8,18,0.00141286849976
9,18,0.00142002105713
10,18,0.00141096115112
11,18,0.00142407417297
12,18,0.00141191482544
13,18,0.00143384933472
14,18,0.00142312049866
15,18,0.00141501426697
16,18,0.00141501426697
17,18,0.0014169216156
18,18,0.00141382217407
19,18,0.00141215324402
20,18,0.00144481658936
21,18,0.00141716003418
22,18,0.00142407417297
23,18,0.00142192840576
24,18,0.00141096115112
25,18,0.00141191482544
26,18,0.00143718719482
27,18,0.00142502784729
28,18,0.00141501426697
29,18,0.00142192840576
30,18,0.00141215324402
31,18,0.00141191482544
32,18,0.00141215324402
33,18,0.00144600868225
34,18,0.00142788887024
35,18,0.00141310691833
36,18,0.00142002105713
37,18,0.00141382217407
38,18,0.00141382217407
39,18,0.00141906738281
40,18,0.00144195556641
41,18,0.00141286849976
42,18,0.00141215324402
43,18,0.00142407417297
44,18,0.00141000747681
45,18,0.00141000747681
46,18,0.00153207778931
47,18,0.00144100189209
48,18,0.00142598152161
49,18,0.00141406059265
50,18,0.00141000747681
51,18,0.00142097473145
52,18,0.00141906738281
53,18,0.00146889686584
54,18,0.0014169216156
55,18,0.00142002105713
56,18,0.00140881538391
57,18,0.00141191482544
58,18,0.00141406059265
59,18,0.00144100189209
60,18,0.00142192840576
61,18,0.00142312049866
62,18,0.0014111995697
63,18,0.00141406059265
64,18,0.00141286849976
65,18,0.00141000747681
66,18,0.0014500617981
67,18,0.00141787528992
68,18,0.00141191482544
69,18,0.00141501426697
70,18,0.0014111995697
71,18,0.00141310691833
72,18,0.00141215324402
73,18,0.00142979621887
74,18,0.00141787528992
75,18,0.00141191482544
76,18,0.00141882896423
77,18,0.00141191482544
78,18,0.00141096115112
79,18,0.00144600868225
80,18,0.00142502784729
81,18,0.00141501426697
82,18,0.00142002105713
83,18,0.00141906738281
84,18,0.00140905380249
85,18,0.00141310691833
86,18,0.00145101547241
87,18,0.00142407417297
88,18,0.00141215324402
89,18,0.00141096115112
90,18,0.00141406059265
91,18,0.00141477584839
92,18,0.00143599510193
93,18,0.00143003463745
94,18,0.00141406059265
95,18,0.00142407417297
96,18,0.00141406059265
97,18,0.00141096115112
98,18,0.00140810012817
99,18,0.00144100189209
100,18,0.00142002105713
101,18,0.00142407417297
102,18,0.00141096115112
103,18,0.00141310691833
104,18,0.00141096115112
105,18,0.00141215324402
106,18,0.00145196914673
107,18,0.00142502784729
108,18,0.00141310691833
109,18,0.00141286849976
110,18,0.00141096115112
111,18,0.00141406059265
112,18,0.001540184021
113,18,0.00143599510193
114,18,0.00141191482544
115,18,0.00141501426697
116,18,0.00142312049866
117,18,0.00141382217407
118,18,0.00142002105713
119,18,0.00142312049866
120,18,0.0014169216156
121,18,0.00141191482544
122,18,0.00141310691833
123,18,0.00141596794128
124,18,0.00140905380249
125,18,0.00144410133362
126,18,0.00143218040466
127,18,0.00141787528992
128,18,0.00140905380249
129,18,0.00141310691833
130,18,0.00141286849976
131,18,0.0014169216156
132,18,0.0014431476593
133,18,0.00142002105713
134,18,0.00141215324402
135,18,0.00141310691833
136,18,0.00141096115112
137,18,0.00142192840576
138,18,0.00143790245056
139,18,0.00142788887024
140,18,0.00141406059265
141,18,0.00141191482544
142,18,0.00141096115112
143,18,0.00141406059265
144,18,0.00141096115112
145,18,0.00144100189209
146,18,0.00142288208008
147,18,0.00141191482544
148,18,0.00141596794128
149,18,0.00141406059265
150,18,0.00141096115112
151,18,0.00141000747681
152,18,0.0014431476593
153,18,0.00142812728882
154,18,0.00141406059265
155,18,0.00140905380249
156,18,0.00140905380249
157,18,0.00141000747681
158,18,0.00148606300354
159,18,0.00143504142761
160,18,0.00141596794128
161,18,0.00141096115112
162,18,0.00141310691833
163,18,0.00141596794128
164,18,0.00141406059265
165,18,0.0014431476593
166,18,0.00142693519592
167,18,0.00141906738281
168,18,0.00140905380249
169,18,0.00142598152161
170,18,0.0014111995697
171,18,0.00141000747681
172,18,0.00142502784729
173,18,0.0014169216156
174,18,0.00141310691833
175,18,0.00141596794128
176,18,0.00141191482544
177,18,0.00141191482544
178,18,0.001540184021
179,18,0.00144505500793
180,18,0.00141501426697
181,18,0.00141191482544
182,18,0.00141501426697
183,18,0.00141406059265
184,18,0.00144410133362
185,18,0.00142812728882
186,18,0.00142192840576
187,18,0.00141406059265
188,18,0.00141096115112
189,18,0.00141310691833
190,18,0.00141310691833
191,18,0.00144195556641
192,18,0.00142812728882
193,18,0.0014169216156
194,18,0.00142097473145
195,18,0.0014181137085
196,18,0.00141596794128
197,18,0.00141716003418
198,18,0.0014500617981
199,18,0.00141596794128
0,19,0.0192801952362
1,19,0.0192890167236
2,19,0.0179839134216
3,19,0.0192928314209
4,19,0.0154230594635
5,19,0.0192818641663
6,19,0.019287109375
7,19,0.0192840099335
8,19,0.0193648338318
9,19,0.0193490982056
10,19,0.0192899703979
11,19,0.0193028450012
12,19,0.0192918777466
13,19,0.0192890167236
14,19,0.0193710327148
15,19,0.0180168151855
16,19,0.0192828178406
17,19,0.0192899703979
18,19,0.0192868709564
19,19,0.0192840099335
20,19,0.0217139720917
21,19,0.0192971229553
22,19,0.0189940929413
23,19,0.0192840099335
24,19,0.0192811489105
25,19,0.0192821025848
26,19,0.0193688869476
27,19,0.0193021297455
28,19,0.0192658901215
29,19,0.0192809104919
30,19,0.0192887783051
31,19,0.0192790031433
32,19,0.0193729400635
33,19,0.0631549358368
34,19,0.0138869285583
35,19,0.0193109512329
36,19,0.0189349651337
37,19,0.0194411277771
38,19,0.01930809021
39,19,0.019287109375
40,19,0.0180861949921
41,19,0.019268989563
42,19,0.0193829536438
43,19,0.0193049907684
44,19,0.0192928314209
45,19,0.0192708969116
46,19,0.0192770957947
47,19,0.0192959308624
48,19,0.019387960434
49,19,0.0192930698395
50,19,0.0193259716034
51,19,0.0192677974701
52,19,0.0192761421204
53,19,0.0192949771881
54,19,0.0178980827332
55,19,0.0192940235138
56,19,0.0154299736023
57,19,0.0192821025848
58,19,0.0192940235138
59,19,0.0192759037018
60,19,0.0193638801575
61,19,0.0193049907684
62,19,0.0192909240723
63,19,0.018355846405
64,19,0.0193390846252
65,19,0.0192859172821
66,19,0.0193700790405
67,19,0.0193300247192
68,19,0.0180330276489
69,19,0.0192880630493
70,19,0.021733045578
71,19,0.019327878952
72,19,0.0193710327148
73,19,0.0193049907684
74,19,0.0192930698395
75,19,0.0192880630493
76,19,0.0192799568176
77,19,0.0192739963531
78,19,0.0193660259247
79,19,0.0192930698395
80,19,0.019268989563
81,19,0.0186719894409
82,19,0.068293094635
83,19,0.0193998813629
84,19,0.0148410797119
85,19,0.0193099975586
86,19,0.0192899703979
87,19,0.0192730426788
88,19,0.0179150104523
89,19,0.0193178653717
90,19,0.0193901062012
91,19,0.0193021297455
92,19,0.0196709632874
93,19,0.0192921161652
94,19,0.0193021297455
95,19,0.019287109375
96,19,0.0193698406219
97,19,0.0192918777466
98,19,0.0193428993225
99,19,0.0192940235138
100,19,0.0193290710449
101,19,0.0178439617157
102,19,0.0180130004883
103,19,0.0192949771881
104,19,0.0192940235138
105,19,0.0177900791168
106,19,0.0192840099335
107,19,0.0192790031433
108,19,0.0193870067596
109,19,0.0192911624908
110,19,0.0192880630493
111,19,0.0179209709167
112,19,0.019275188446
113,19,0.0192620754242
114,19,0.0193819999695
115,19,0.0193090438843
116,19,0.0192921161652
117,19,0.0192809104919
118,19,0.0192759037018
119,19,0.0192880630493
120,19,0.0193779468536
121,19,0.0185308456421
122,19,0.0192940235138
123,19,0.0192818641663
124,19,0.0192818641663
125,19,0.01930809021
126,19,0.0193858146667
127,19,0.0192952156067
128,19,0.019287109375
129,19,0.0192890167236
130,19,0.0192739963531
131,19,0.0687420368195
132,19,0.0195569992065
133,19,0.0193228721619
134,19,0.0192840099335
135,19,0.0193090438843
136,19,0.0205318927765
137,19,0.0192899703979
138,19,0.0193910598755
139,19,0.0193059444427
140,19,0.0180749893188
141,19,0.0192928314209
142,19,0.0192880630493
143,19,0.0192809104919
144,19,0.0198171138763
145,19,0.0193021297455
146,19,0.0192968845367
147,19,0.0192859172821
148,19,0.0192680358887
149,19,0.019317150116
150,19,0.0193800926208
151,19,0.0193028450012
152,19,0.0192940235138
153,19,0.0207490921021
154,19,0.0177731513977
155,19,0.0185480117798
156,19,0.0194108486176
157,19,0.01930809021
158,19,0.0193099975586
159,19,0.0192890167236
160,19,0.0192899703979
161,19,0.0192909240723
162,19,0.0193657875061
163,19,0.0192878246307
164,19,0.0192849636078
165,19,0.0192952156067
166,19,0.0193049907684
167,19,0.0192759037018
168,19,0.0193631649017
169,19,0.0193231105804
170,19,0.014221906662
171,19,0.0193059444427
172,19,0.0192849636078
173,19,0.0191309452057
174,19,0.0193939208984
175,19,0.0192921161652
176,19,0.0192959308624
177,19,0.019278049469
178,19,0.0192918777466
179,19,0.0206670761108
180,19,0.0661771297455
181,19,0.0195641517639
182,19,0.0193300247192
183,19,0.0193011760712
184,19,0.0192821025848
185,19,0.0192940235138
186,19,0.0193889141083
187,19,0.0193028450012
188,19,0.0192790031433
189,19,0.019287109375
190,19,0.0207939147949
191,19,0.0185310840607
192,19,0.019387960434
193,19,0.0192940235138
194,19,0.0192821025848
195,19,0.0192840099335
196,19,0.0186991691589
197,19,0.0192928314209
198,19,0.0193688869476
199,19,0.019345998764
0,20,0.0193431377411
1,20,0.0194220542908
2,20,0.0193378925323
3,20,0.0193331241608
4,20,0.0193769931793
5,20,0.0192790031433
6,20,0.0193340778351
7,20,0.0194239616394
8,20,0.0193390846252
9,20,0.0193729400635
10,20,0.0193700790405
11,20,0.0193388462067
12,20,0.0179979801178
13,20,0.0194079875946
14,20,0.0193271636963
15,20,0.015230178833
16,20,0.0193438529968
17,20,0.0193378925323
18,20,0.0193920135498
19,20,0.0185098648071
20,20,0.019376039505
21,20,0.0193481445312
22,20,0.0193412303925
23,20,0.0193381309509
24,20,0.0193281173706
25,20,0.0194268226624
26,20,0.0193519592285
27,20,0.0193400382996
28,20,0.018532037735
29,20,0.0193271636963
30,20,0.0217161178589
31,20,0.0195090770721
32,20,0.0193629264832
33,20,0.0193331241608
34,20,0.0193350315094
35,20,0.0193219184875
36,20,0.0193498134613
37,20,0.0194408893585
38,20,0.019345998764
39,20,0.0193490982056
40,20,0.0691320896149
41,20,0.0195918083191
42,20,0.0194418430328
43,20,0.019345998764
44,20,0.0193428993225
45,20,0.0188739299774
46,20,0.0193440914154
47,20,0.0193331241608
48,20,0.0194091796875
49,20,0.0193240642548
50,20,0.0193390846252
51,20,0.0193312168121
52,20,0.0193870067596
53,20,0.0187349319458
54,20,0.0194389820099
55,20,0.019345998764
56,20,0.0193350315094
57,20,0.0193309783936
58,20,0.0193309783936
59,20,0.0201001167297
60,20,0.0180010795593
61,20,0.0193519592285
62,20,0.017028093338
63,20,0.0193271636963
64,20,0.0193240642548
65,20,0.0193610191345
66,20,0.0194301605225
67,20,0.0193490982056
68,20,0.019336938858
69,20,0.0193378925323
70,20,0.0193309783936
71,20,0.0193271636963
72,20,0.0194041728973
73,20,0.0193388462067
74,20,0.0193309783936
75,20,0.0193381309509
76,20,0.0193300247192
77,20,0.0182600021362
78,20,0.0195569992065
79,20,0.0193490982056
80,20,0.0193312168121
81,20,0.0179228782654
82,20,0.0193500518799
83,20,0.0193359851837
84,20,0.0139360427856
85,20,0.0193498134613
86,20,0.0193259716034
87,20,0.0193321704865
88,20,0.0193381309509
89,20,0.0193219184875
90,20,0.0659248828888
91,20,0.019464969635
92,20,0.0193691253662
93,20,0.0193328857422
94,20,0.0193300247192
95,20,0.0189461708069
96,20,0.0194320678711
97,20,0.0193610191345
98,20,0.0193431377411
99,20,0.0193290710449
100,20,0.0193159580231
101,20,0.0193309783936
102,20,0.0194320678711
103,20,0.0190780162811
104,20,0.019357919693
105,20,0.018886089325
106,20,0.0193419456482
107,20,0.0193438529968
108,20,0.0194230079651
109,20,0.01935505867
110,20,0.0193541049957
111,20,0.0193269252777
112,20,0.0193440914154
113,20,0.0193388462067
114,20,0.0225222110748
115,20,0.0193431377411
116,20,0.0193810462952
117,20,0.0193510055542
118,20,0.0193629264832
119,20,0.0194268226624
120,20,0.0193531513214
121,20,0.0193190574646
122,20,0.0187730789185
123,20,0.0183901786804
124,20,0.0193619728088
125,20,0.0194139480591
126,20,0.0193469524384
127,20,0.0193359851837
128,20,0.0193340778351
129,20,0.0193748474121
130,20,0.0192627906799
131,20,0.0149140357971
132,20,0.0193521976471
133,20,0.0193421840668
134,20,0.0193419456482
135,20,0.0193228721619
136,20,0.0193400382996
137,20,0.0194318294525
138,20,0.0193638801575
139,20,0.0681059360504
140,20,0.0193998813629
141,20,0.019651889801
142,20,0.0182430744171
143,20,0.0194430351257
144,20,0.0193560123444
145,20,0.0193250179291
146,20,0.0193359851837
147,20,0.0193271636963
148,20,0.019348859787
149,20,0.0208089351654
150,20,0.0193529129028
151,20,0.0193500518799
152,20,0.0193409919739
153,20,0.0193381309509
154,20,0.0193331241608
155,20,0.0194230079651
156,20,0.0207939147949
157,20,0.0193989276886
158,20,0.0193479061127
159,20,0.019317150116
160,20,0.0193281173706
161,20,0.0194220542908
162,20,0.0184278488159
163,20,0.0193529129028
164,20,0.0193870067596
165,20,0.019339799881
166,20,0.0193419456482
167,20,0.0141429901123
168,20,0.019345998764
169,20,0.019336938858
170,20,0.0193319320679
171,20,0.0193350315094
172,20,0.0198628902435
173,20,0.0194268226624
174,20,0.0193698406219
175,20,0.0204861164093
176,20,0.0193300247192
177,20,0.019376039505
178,20,0.0193319320679
179,20,0.0164740085602
180,20,0.0193438529968
181,20,0.0193479061127
182,20,0.0193409919739
183,20,0.0193300247192
184,20,0.0193490982056
185,20,0.0194270610809
186,20,0.019336938858
187,20,0.0193419456482
188,20,0.0638608932495
189,20,0.0194749832153
190,20,0.0193440914154
191,20,0.0194270610809
192,20,0.019257068634
193,20,0.0195081233978
194,20,0.019336938858
195,20,0.0193228721619
196,20,0.0193250179291
197,20,0.0194308757782
198,20,0.0179259777069
199,20,0.0193390846252
